platform_test/cores/test.vcd
$comment Generated by nMigen $end
$date 2019-06-06 16:27:27.987396 $end
$timescale 100 ps $end
$scope module top $end
$var wire 1 0 enable $end
$var wire 1 1 rst $end
$var wire 1 2 clk $end
$var wire 1 3 o $end
$var wire 5 4 counter $end
$var wire 5 5 stretch $end
$var wire 5 6 value $end
$var wire 1 7 updown $end
$upscope $end
$enddefinitions $end
#0
$dumpvars
10
01
02
03
b0 4
b0 5
b0 6
17
$end
#5000
12
#5001
b1 4
b1 5
b1 6
#10000
02
#15000
12
#15001
b10 4
b10 5
#20000
02
#24999
12
#25000
b11 4
b11 5
#29999
02
#34999
12
#35000
b100 4
b100 5
#40000
02
#45000
12
#45001
b101 4
b101 5
#50000
02
#55000
12
#55001
b110 4
b110 5
#60000
02
#65000
12
#65001
b111 4
b111 5
#70000
02
#75000
12
#75001
b1000 4
b1000 5
#80000
02
#85000
12
#85001
b1001 4
b1001 5
#90000
02
#95000
12
#95001
b1010 4
b1010 5
#100000
02
#105000
12
#105001
b1011 4
b1011 5
#110000
02
#115000
12
#115001
b1100 4
b1100 5
#120000
02
#125000
12
#125001
b1101 4
b1101 5
#130000
02
#135000
12
#135001
b1110 4
b1110 5
#140000
02
#145000
12
#145001
b1111 4
b1111 5
#150000
02
#155000
12
#155001
b10000 4
b10000 5
#160000
02
#165000
12
#165001
b10001 4
b10001 5
#170000
02
#174999
12
#175000
b10010 4
b10010 5
#179999
02
#184999
12
#185000
b10011 4
b10011 5
#189999
02
#194999
12
#195000
b10100 4
b10100 5
#199999
02
#204999
12
#205000
b10101 4
b10101 5
#209999
02
#214999
12
#215000
b10110 4
b10110 5
#219999
02
#224999
12
#225000
b10111 4
b10111 5
#229999
02
#234999
12
#235000
b11000 4
b11000 5
#239999
02
#244999
12
#245000
b11001 4
b11001 5
#249999
02
#254999
12
#255000
b11010 4
b11010 5
#259999
02
#264999
12
#265000
b11011 4
b11011 5
#269999
02
#274999
12
#275000
b11100 4
b11100 5
#279999
02
#284999
12
#285000
b11101 4
b11101 5
#289999
02
#294999
12
#295000
b11110 4
b11110 5
#299999
02
#304999
12
#305000
b11111 4
b11111 5
#309999
02
#314999
12
#315000
b0 4
b0 5
13
#319999
02
#324999
12
#325000
b1 4
b1 5
b10 6
#329999
02
#334999
12
#335000
b10 4
b10 5
03
#339999
02
#344999
12
#345000
b11 4
b11 5
#349999
02
#354999
12
#355000
b100 4
b100 5
#359999
02
#364999
12
#365000
b101 4
b101 5
#369999
02
#374999
12
#375000
b110 4
b110 5
#379999
02
#384999
12
#385000
b111 4
b111 5
#389999
02
#394999
12
#395000
b1000 4
b1000 5
#399999
02
#404999
12
#405000
b1001 4
b1001 5
#409999
02
#414999
12
#415000
b1010 4
b1010 5
#419999
02
#424999
12
#425000
b1011 4
b1011 5
#429999
02
#434999
12
#435000
b1100 4
b1100 5
#439999
02
#444999
12
#445000
b1101 4
b1101 5
#449999
02
#454999
12
#455000
b1110 4
b1110 5
#459999
02
#464999
12
#465000
b1111 4
b1111 5
#469999
02
#474999
12
#475000
b10000 4
b10000 5
#479999
02
#484999
12
#485000
b10001 4
b10001 5
#489999
02
#494999
12
#495000
b10010 4
b10010 5
#499999
02
#504999
12
#505000
b10011 4
b10011 5
#509999
02
#514999
12
#515000
b10100 4
b10100 5
#519999
02
#524999
12
#525000
b10101 4
b10101 5
#529999
02
#534999
12
#535000
b10110 4
b10110 5
#539999
02
#544999
12
#545000
b10111 4
b10111 5
#549999
02
#554999
12
#555000
b11000 4
b11000 5
#559999
02
#564999
12
#565000
b11001 4
b11001 5
#569999
02
#574999
12
#575000
b11010 4
b11010 5
#579999
02
#584999
12
#585000
b11011 4
b11011 5
#589999
02
#594999
12
#595000
b11100 4
b11100 5
#599999
02
#604999
12
#605000
b11101 4
b11101 5
#609999
02
#614999
12
#615000
b11110 4
b11110 5
#619999
02
#624999
12
#625000
b11111 4
b11111 5
#629999
02
#634999
12
#635000
b0 4
b0 5
13
#639999
02
#644999
12
#645000
b1 4
b1 5
b11 6
#649999
02
#654999
12
#655000
b10 4
b10 5
#659999
02
#664999
12
#665000
b11 4
b11 5
03
#669999
02
#674999
12
#675000
b100 4
b100 5
#679999
02
#684999
12
#685000
b101 4
b101 5
#689999
02
#694999
12
#695000
b110 4
b110 5
#699999
02
#704999
12
#705000
b111 4
b111 5
#709999
02
#714999
12
#715000
b1000 4
b1000 5
#719999
02
#724999
12
#725000
b1001 4
b1001 5
#729999
02
#734999
12
#735000
b1010 4
b1010 5
#739999
02
#744999
12
#745000
b1011 4
b1011 5
#749999
02
#754999
12
#755000
b1100 4
b1100 5
#759999
02
#764999
12
#765000
b1101 4
b1101 5
#769999
02
#774999
12
#775000
b1110 4
b1110 5
#779999
02
#784999
12
#785000
b1111 4
b1111 5
#789999
02
#794999
12
#795000
b10000 4
b10000 5
#799999
02
#804999
12
#805000
b10001 4
b10001 5
#809999
02
#814999
12
#815000
b10010 4
b10010 5
#819999
02
#824999
12
#825000
b10011 4
b10011 5
#829999
02
#834999
12
#835000
b10100 4
b10100 5
#839999
02
#844999
12
#845000
b10101 4
b10101 5
#849999
02
#854999
12
#855000
b10110 4
b10110 5
#859999
02
#864999
12
#865000
b10111 4
b10111 5
#869999
02
#874999
12
#875000
b11000 4
b11000 5
#879999
02
#884999
12
#885000
b11001 4
b11001 5
#889999
02
#894999
12
#895000
b11010 4
b11010 5
#899999
02
#904999
12
#905000
b11011 4
b11011 5
#909999
02
#914999
12
#915000
b11100 4
b11100 5
#919999
02
#924999
12
#925000
b11101 4
b11101 5
#929999
02
#934999
12
#935000
b11110 4
b11110 5
#939999
02
#944999
12
#945000
b11111 4
b11111 5
#949999
02
#954999
12
#955000
b0 4
b0 5
13
#959999
02
#964999
12
#965000
b1 4
b1 5
b100 6
#969999
02
#974999
12
#975000
b10 4
b10 5
#979999
02
#984999
12
#985000
b11 4
b11 5
#989999
02
#994999
12
#995000
b100 4
b100 5
03
#999999
02
#1004999
12
#1005000
b101 4
b101 5
#1009999
02
#1014999
12
#1015000
b110 4
b110 5
#1019999
02
#1024999
12
#1025000
b111 4
b111 5
#1029999
02
#1034999
12
#1035000
b1000 4
b1000 5
#1039999
02
#1044999
12
#1045000
b1001 4
b1001 5
#1049999
02
#1054999
12
#1055000
b1010 4
b1010 5
#1059999
02
#1064999
12
#1065000
b1011 4
b1011 5
#1069999
02
#1074999
12
#1075000
b1100 4
b1100 5
#1079999
02
#1084999
12
#1085000
b1101 4
b1101 5
#1089999
02
#1094999
12
#1095000
b1110 4
b1110 5
#1099999
02
#1104999
12
#1105000
b1111 4
b1111 5
#1109999
02
#1114999
12
#1115000
b10000 4
b10000 5
#1119999
02
#1124999
12
#1125000
b10001 4
b10001 5
#1129999
02
#1134999
12
#1135000
b10010 4
b10010 5
#1139999
02
#1144999
12
#1145000
b10011 4
b10011 5
#1149999
02
#1154999
12
#1155000
b10100 4
b10100 5
#1159999
02
#1164999
12
#1165000
b10101 4
b10101 5
#1169999
02
#1174999
12
#1175000
b10110 4
b10110 5
#1179999
02
#1184999
12
#1185000
b10111 4
b10111 5
#1189999
02
#1194999
12
#1195000
b11000 4
b11000 5
#1199999
02
#1204999
12
#1205000
b11001 4
b11001 5
#1209999
02
#1214999
12
#1215000
b11010 4
b11010 5
#1219999
02
#1224999
12
#1225000
b11011 4
b11011 5
#1229999
02
#1234999
12
#1235000
b11100 4
b11100 5
#1239999
02
#1244999
12
#1245000
b11101 4
b11101 5
#1249999
02
#1254999
12
#1255000
b11110 4
b11110 5
#1259999
02
#1264999
12
#1265000
b11111 4
b11111 5
#1269999
02
#1274999
12
#1275000
b0 4
b0 5
13
#1279999
02
#1284999
12
#1285000
b1 4
b1 5
b101 6
#1289999
02
#1294999
12
#1295000
b10 4
b10 5
#1299999
02
#1304999
12
#1305000
b11 4
b11 5
#1309999
02
#1314999
12
#1315000
b100 4
b100 5
#1319999
02
#1324999
12
#1325000
b101 4
b101 5
03
#1329999
02
#1334999
12
#1335001
b110 4
b110 5
#1340000
02
#1345000
12
#1345001
b111 4
b111 5
#1350000
02
#1355000
12
#1355001
b1000 4
b1000 5
#1360000
02
#1365000
12
#1365001
b1001 4
b1001 5
#1370000
02
#1375000
12
#1375001
b1010 4
b1010 5
#1380000
02
#1385000
12
#1385001
b1011 4
b1011 5
#1390000
02
#1395000
12
#1395001
b1100 4
b1100 5
#1400000
02
#1405000
12
#1405001
b1101 4
b1101 5
#1410000
02
#1415000
12
#1415001
b1110 4
b1110 5
#1420000
02
#1425000
12
#1425001
b1111 4
b1111 5
#1430000
02
#1435000
12
#1435001
b10000 4
b10000 5
#1440000
02
#1445000
12
#1445001
b10001 4
b10001 5
#1450000
02
#1455000
12
#1455001
b10010 4
b10010 5
#1460000
02
#1465000
12
#1465001
b10011 4
b10011 5
#1470000
02
#1475000
12
#1475001
b10100 4
b10100 5
#1480000
02
#1485000
12
#1485001
b10101 4
b10101 5
#1490000
02
#1495000
12
#1495001
b10110 4
b10110 5
#1500000
02
#1505000
12
#1505001
b10111 4
b10111 5
#1510000
02
#1515000
12
#1515001
b11000 4
b11000 5
#1520000
02
#1525000
12
#1525001
b11001 4
b11001 5
#1530000
02
#1535000
12
#1535001
b11010 4
b11010 5
#1540000
02
#1545000
12
#1545001
b11011 4
b11011 5
#1550000
02
#1555000
12
#1555001
b11100 4
b11100 5
#1560000
02
#1565000
12
#1565001
b11101 4
b11101 5
#1570000
02
#1575000
12
#1575001
b11110 4
b11110 5
#1580000
02
#1585000
12
#1585001
b11111 4
b11111 5
#1590000
02
#1595000
12
#1595001
b0 4
b0 5
13
#1600000
02
#1605000
12
#1605001
b1 4
b1 5
b110 6
#1610000
02
#1615000
12
#1615001
b10 4
b10 5
#1620000
02
#1625000
12
#1625001
b11 4
b11 5
#1630000
02
#1635000
12
#1635001
b100 4
b100 5
#1640000
02
#1645000
12
#1645001
b101 4
b101 5
#1650000
02
#1655000
12
#1655001
b110 4
b110 5
03
#1660000
02
#1665000
12
#1665001
b111 4
b111 5
#1670000
02
#1675000
12
#1675001
b1000 4
b1000 5
#1680000
02
#1685000
12
#1685001
b1001 4
b1001 5
#1690000
02
#1695000
12
#1695001
b1010 4
b1010 5
#1700000
02
#1705000
12
#1705001
b1011 4
b1011 5
#1710000
02
#1715000
12
#1715001
b1100 4
b1100 5
#1720000
02
#1725000
12
#1725001
b1101 4
b1101 5
#1730000
02
#1735000
12
#1735001
b1110 4
b1110 5
#1740000
02
#1745000
12
#1745001
b1111 4
b1111 5
#1750000
02
#1755000
12
#1755001
b10000 4
b10000 5
#1760000
02
#1765000
12
#1765001
b10001 4
b10001 5
#1770000
02
#1775000
12
#1775001
b10010 4
b10010 5
#1780000
02
#1785000
12
#1785001
b10011 4
b10011 5
#1790000
02
#1795000
12
#1795001
b10100 4
b10100 5
#1800000
02
#1805000
12
#1805001
b10101 4
b10101 5
#1810000
02
#1815000
12
#1815001
b10110 4
b10110 5
#1820000
02
#1825000
12
#1825001
b10111 4
b10111 5
#1830000
02
#1835000
12
#1835001
b11000 4
b11000 5
#1840000
02
#1845000
12
#1845001
b11001 4
b11001 5
#1850000
02
#1855000
12
#1855001
b11010 4
b11010 5
#1860000
02
#1865000
12
#1865001
b11011 4
b11011 5
#1870000
02
#1875000
12
#1875001
b11100 4
b11100 5
#1880000
02
#1885000
12
#1885001
b11101 4
b11101 5
#1890000
02
#1895000
12
#1895001
b11110 4
b11110 5
#1900000
02
#1905000
12
#1905001
b11111 4
b11111 5
#1910000
02
#1915000
12
#1915001
b0 4
b0 5
13
#1920000
02
#1925000
12
#1925001
b1 4
b1 5
b111 6
#1930000
02
#1935000
12
#1935001
b10 4
b10 5
#1940000
02
#1945000
12
#1945001
b11 4
b11 5
#1950000
02
#1955000
12
#1955001
b100 4
b100 5
#1960000
02
#1965000
12
#1965001
b101 4
b101 5
#1970000
02
#1975000
12
#1975001
b110 4
b110 5
#1980000
02
#1985000
12
#1985001
b111 4
b111 5
03
#1990000
02
#1995000
12
#1995001
b1000 4
b1000 5
#2000000
02
#2005000
12
#2005001
b1001 4
b1001 5
#2010000
02
#2015000
12
#2015001
b1010 4
b1010 5
#2020000
02
#2025000
12
#2025001
b1011 4
b1011 5
#2030000
02
#2035000
12
#2035001
b1100 4
b1100 5
#2040000
02
#2045000
12
#2045001
b1101 4
b1101 5
#2050000
02
#2055000
12
#2055001
b1110 4
b1110 5
#2060000
02
#2065000
12
#2065001
b1111 4
b1111 5
#2070000
02
#2075000
12
#2075001
b10000 4
b10000 5
#2080000
02
#2085000
12
#2085001
b10001 4
b10001 5
#2090000
02
#2095000
12
#2095001
b10010 4
b10010 5
#2100000
02
#2105000
12
#2105001
b10011 4
b10011 5
#2110000
02
#2115000
12
#2115001
b10100 4
b10100 5
#2120000
02
#2125000
12
#2125001
b10101 4
b10101 5
#2130000
02
#2135000
12
#2135001
b10110 4
b10110 5
#2140000
02
#2145000
12
#2145001
b10111 4
b10111 5
#2150000
02
#2155000
12
#2155001
b11000 4
b11000 5
#2160000
02
#2165000
12
#2165001
b11001 4
b11001 5
#2170000
02
#2175000
12
#2175001
b11010 4
b11010 5
#2180000
02
#2185000
12
#2185001
b11011 4
b11011 5
#2190000
02
#2195000
12
#2195001
b11100 4
b11100 5
#2200000
02
#2205000
12
#2205001
b11101 4
b11101 5
#2210000
02
#2215000
12
#2215001
b11110 4
b11110 5
#2220000
02
#2225000
12
#2225001
b11111 4
b11111 5
#2230000
02
#2235000
12
#2235001
b0 4
b0 5
13
#2240000
02
#2245000
12
#2245001
b1 4
b1 5
b1000 6
#2250000
02
#2255000
12
#2255001
b10 4
b10 5
#2260000
02
#2265000
12
#2265001
b11 4
b11 5
#2270000
02
#2275000
12
#2275001
b100 4
b100 5
#2280000
02
#2285000
12
#2285001
b101 4
b101 5
#2290000
02
#2295000
12
#2295001
b110 4
b110 5
#2300000
02
#2305000
12
#2305001
b111 4
b111 5
#2310000
02
#2315000
12
#2315001
b1000 4
b1000 5
03
#2320000
02
#2325000
12
#2325001
b1001 4
b1001 5
#2330000
02
#2335000
12
#2335001
b1010 4
b1010 5
#2340000
02
#2345000
12
#2345001
b1011 4
b1011 5
#2350000
02
#2355000
12
#2355001
b1100 4
b1100 5
#2360000
02
#2365000
12
#2365001
b1101 4
b1101 5
#2370000
02
#2375000
12
#2375001
b1110 4
b1110 5
#2380000
02
#2385000
12
#2385001
b1111 4
b1111 5
#2390000
02
#2395000
12
#2395001
b10000 4
b10000 5
#2400000
02
#2405000
12
#2405001
b10001 4
b10001 5
#2410000
02
#2415000
12
#2415001
b10010 4
b10010 5
#2420000
02
#2425000
12
#2425001
b10011 4
b10011 5
#2430000
02
#2435000
12
#2435001
b10100 4
b10100 5
#2440000
02
#2445000
12
#2445001
b10101 4
b10101 5
#2450000
02
#2455000
12
#2455001
b10110 4
b10110 5
#2460000
02
#2465000
12
#2465001
b10111 4
b10111 5
#2470000
02
#2475000
12
#2475001
b11000 4
b11000 5
#2480000
02
#2485000
12
#2485001
b11001 4
b11001 5
#2490000
02
#2495000
12
#2495001
b11010 4
b11010 5
#2500000
02
#2505000
12
#2505001
b11011 4
b11011 5
#2510000
02
#2515000
12
#2515001
b11100 4
b11100 5
#2520000
02
#2525000
12
#2525001
b11101 4
b11101 5
#2530000
02
#2535000
12
#2535001
b11110 4
b11110 5
#2540000
02
#2545000
12
#2545001
b11111 4
b11111 5
#2550000
02
#2555000
12
#2555001
b0 4
b0 5
13
#2560000
02
#2565000
12
#2565001
b1 4
b1 5
b1001 6
#2570000
02
#2575000
12
#2575001
b10 4
b10 5
#2580000
02
#2585000
12
#2585001
b11 4
b11 5
#2590000
02
#2595000
12
#2595001
b100 4
b100 5
#2600000
02
#2605000
12
#2605001
b101 4
b101 5
#2610000
02
#2615000
12
#2615001
b110 4
b110 5
#2620000
02
#2625000
12
#2625001
b111 4
b111 5
#2630000
02
#2635000
12
#2635001
b1000 4
b1000 5
#2640000
02
#2645000
12
#2645001
b1001 4
b1001 5
03
#2650000
02
#2655000
12
#2655001
b1010 4
b1010 5
#2660000
02
#2665000
12
#2665001
b1011 4
b1011 5
#2670000
02
#2675000
12
#2675001
b1100 4
b1100 5
#2680000
02
#2685000
12
#2685001
b1101 4
b1101 5
#2690000
02
#2695000
12
#2695001
b1110 4
b1110 5
#2700000
02
#2705000
12
#2705001
b1111 4
b1111 5
#2710000
02
#2715000
12
#2715001
b10000 4
b10000 5
#2720000
02
#2725000
12
#2725001
b10001 4
b10001 5
#2730000
02
#2735000
12
#2735001
b10010 4
b10010 5
#2740000
02
#2745000
12
#2745001
b10011 4
b10011 5
#2750000
02
#2755000
12
#2755001
b10100 4
b10100 5
#2760000
02
#2765000
12
#2765001
b10101 4
b10101 5
#2770000
02
#2775000
12
#2775001
b10110 4
b10110 5
#2780000
02
#2785000
12
#2785001
b10111 4
b10111 5
#2790000
02
#2795000
12
#2795001
b11000 4
b11000 5
#2800000
02
#2805000
12
#2805001
b11001 4
b11001 5
#2810000
02
#2815000
12
#2815001
b11010 4
b11010 5
#2820000
02
#2825000
12
#2825001
b11011 4
b11011 5
#2830000
02
#2835000
12
#2835001
b11100 4
b11100 5
#2840000
02
#2845000
12
#2845001
b11101 4
b11101 5
#2850000
02
#2855000
12
#2855001
b11110 4
b11110 5
#2860000
02
#2865000
12
#2865001
b11111 4
b11111 5
#2870000
02
#2875000
12
#2875001
b0 4
b0 5
13
#2880000
02
#2885000
12
#2885001
b1 4
b1 5
b1010 6
#2890000
02
#2895000
12
#2895001
b10 4
b10 5
#2900000
02
#2905000
12
#2905001
b11 4
b11 5
#2910000
02
#2915000
12
#2915001
b100 4
b100 5
#2920000
02
#2925000
12
#2925001
b101 4
b101 5
#2930000
02
#2935000
12
#2935001
b110 4
b110 5
#2940000
02
#2945000
12
#2945001
b111 4
b111 5
#2950000
02
#2955000
12
#2955001
b1000 4
b1000 5
#2960000
02
#2965000
12
#2965001
b1001 4
b1001 5
#2970000
02
#2975000
12
#2975001
b1010 4
b1010 5
03
#2980000
02
#2985000
12
#2985001
b1011 4
b1011 5
#2990000
02
#2995000
12
#2995001
b1100 4
b1100 5
#3000000
02
#3005000
12
#3005001
b1101 4
b1101 5
#3010000
02
#3015000
12
#3015001
b1110 4
b1110 5
#3020000
02
#3025000
12
#3025001
b1111 4
b1111 5
#3030000
02
#3035000
12
#3035001
b10000 4
b10000 5
#3040000
02
#3045000
12
#3045001
b10001 4
b10001 5
#3050000
02
#3055000
12
#3055001
b10010 4
b10010 5
#3060000
02
#3065000
12
#3065001
b10011 4
b10011 5
#3070000
02
#3075000
12
#3075001
b10100 4
b10100 5
#3080000
02
#3085000
12
#3085001
b10101 4
b10101 5
#3090000
02
#3095000
12
#3095001
b10110 4
b10110 5
#3100000
02
#3105000
12
#3105001
b10111 4
b10111 5
#3110000
02
#3115000
12
#3115001
b11000 4
b11000 5
#3120000
02
#3125000
12
#3125001
b11001 4
b11001 5
#3130000
02
#3135000
12
#3135001
b11010 4
b11010 5
#3140000
02
#3145000
12
#3145001
b11011 4
b11011 5
#3150000
02
#3155000
12
#3155001
b11100 4
b11100 5
#3160000
02
#3165000
12
#3165001
b11101 4
b11101 5
#3170000
02
#3175000
12
#3175001
b11110 4
b11110 5
#3180000
02
#3185000
12
#3185001
b11111 4
b11111 5
#3190000
02
#3195000
12
#3195001
b0 4
b0 5
13
#3200000
02
#3205000
12
#3205001
b1 4
b1 5
b1011 6
#3210000
02
#3215000
12
#3215001
b10 4
b10 5
#3220000
02
#3225000
12
#3225001
b11 4
b11 5
#3230000
02
#3235000
12
#3235001
b100 4
b100 5
#3240000
02
#3245000
12
#3245001
b101 4
b101 5
#3250000
02
#3255000
12
#3255001
b110 4
b110 5
#3260000
02
#3265000
12
#3265001
b111 4
b111 5
#3270000
02
#3275000
12
#3275001
b1000 4
b1000 5
#3280000
02
#3285000
12
#3285001
b1001 4
b1001 5
#3290000
02
#3295000
12
#3295001
b1010 4
b1010 5
#3300000
02
#3305000
12
#3305001
b1011 4
b1011 5
03
#3310000
02
#3315000
12
#3315001
b1100 4
b1100 5
#3320000
02
#3325000
12
#3325001
b1101 4
b1101 5
#3330000
02
#3335000
12
#3335001
b1110 4
b1110 5
#3340000
02
#3345000
12
#3345001
b1111 4
b1111 5
#3350000
02
#3355000
12
#3355001
b10000 4
b10000 5
#3360000
02
#3365000
12
#3365001
b10001 4
b10001 5
#3370000
02
#3375000
12
#3375001
b10010 4
b10010 5
#3380000
02
#3385000
12
#3385001
b10011 4
b10011 5
#3390000
02
#3395000
12
#3395001
b10100 4
b10100 5
#3400000
02
#3405000
12
#3405001
b10101 4
b10101 5
#3410000
02
#3415000
12
#3415001
b10110 4
b10110 5
#3420000
02
#3425000
12
#3425001
b10111 4
b10111 5
#3430000
02
#3435000
12
#3435001
b11000 4
b11000 5
#3440000
02
#3445000
12
#3445001
b11001 4
b11001 5
#3450000
02
#3455000
12
#3455001
b11010 4
b11010 5
#3460000
02
#3465000
12
#3465001
b11011 4
b11011 5
#3470000
02
#3475000
12
#3475001
b11100 4
b11100 5
#3480000
02
#3485000
12
#3485001
b11101 4
b11101 5
#3490000
02
#3495000
12
#3495001
b11110 4
b11110 5
#3500000
02
#3505000
12
#3505001
b11111 4
b11111 5
#3510000
02
#3515000
12
#3515001
b0 4
b0 5
13
#3520000
02
#3525000
12
#3525001
b1 4
b1 5
b1100 6
#3530000
02
#3535000
12
#3535001
b10 4
b10 5
#3540000
02
#3545000
12
#3545001
b11 4
b11 5
#3550000
02
#3555000
12
#3555001
b100 4
b100 5
#3560000
02
#3565000
12
#3565001
b101 4
b101 5
#3570000
02
#3575000
12
#3575001
b110 4
b110 5
#3580000
02
#3585000
12
#3585001
b111 4
b111 5
#3590000
02
#3595000
12
#3595001
b1000 4
b1000 5
#3600000
02
#3605000
12
#3605001
b1001 4
b1001 5
#3610000
02
#3615000
12
#3615001
b1010 4
b1010 5
#3620000
02
#3625000
12
#3625001
b1011 4
b1011 5
#3630000
02
#3635000
12
#3635001
b1100 4
b1100 5
03
#3640000
02
#3645000
12
#3645001
b1101 4
b1101 5
#3650000
02
#3655000
12
#3655001
b1110 4
b1110 5
#3660000
02
#3665000
12
#3665001
b1111 4
b1111 5
#3670000
02
#3675000
12
#3675001
b10000 4
b10000 5
#3680000
02
#3685000
12
#3685001
b10001 4
b10001 5
#3690000
02
#3695000
12
#3695001
b10010 4
b10010 5
#3700000
02
#3705000
12
#3705001
b10011 4
b10011 5
#3710000
02
#3715000
12
#3715001
b10100 4
b10100 5
#3720000
02
#3725000
12
#3725001
b10101 4
b10101 5
#3730000
02
#3735000
12
#3735001
b10110 4
b10110 5
#3740000
02
#3745000
12
#3745001
b10111 4
b10111 5
#3750000
02
#3755000
12
#3755001
b11000 4
b11000 5
#3760000
02
#3765000
12
#3765001
b11001 4
b11001 5
#3770000
02
#3775000
12
#3775001
b11010 4
b11010 5
#3780000
02
#3785000
12
#3785001
b11011 4
b11011 5
#3790000
02
#3795000
12
#3795001
b11100 4
b11100 5
#3800000
02
#3805000
12
#3805001
b11101 4
b11101 5
#3810000
02
#3815000
12
#3815001
b11110 4
b11110 5
#3820000
02
#3825000
12
#3825001
b11111 4
b11111 5
#3830000
02
#3835000
12
#3835001
b0 4
b0 5
13
#3840000
02
#3845000
12
#3845001
b1 4
b1 5
b1101 6
#3850000
02
#3855000
12
#3855001
b10 4
b10 5
#3860000
02
#3865000
12
#3865001
b11 4
b11 5
#3870000
02
#3875000
12
#3875001
b100 4
b100 5
#3880000
02
#3885000
12
#3885001
b101 4
b101 5
#3890000
02
#3895000
12
#3895001
b110 4
b110 5
#3900000
02
#3905000
12
#3905001
b111 4
b111 5
#3910000
02
#3915000
12
#3915001
b1000 4
b1000 5
#3920000
02
#3925000
12
#3925001
b1001 4
b1001 5
#3930000
02
#3935000
12
#3935001
b1010 4
b1010 5
#3940000
02
#3945000
12
#3945001
b1011 4
b1011 5
#3950000
02
#3955000
12
#3955001
b1100 4
b1100 5
#3960000
02
#3965000
12
#3965001
b1101 4
b1101 5
03
#3970000
02
#3975000
12
#3975001
b1110 4
b1110 5
#3980000
02
#3985000
12
#3985001
b1111 4
b1111 5
#3990000
02
#3995000
12
#3995001
b10000 4
b10000 5
#4000000
02
#4005000
12
#4005001
b10001 4
b10001 5
#4010000
02
#4015000
12
#4015001
b10010 4
b10010 5
#4020000
02
#4025000
12
#4025001
b10011 4
b10011 5
#4030000
02
#4035000
12
#4035001
b10100 4
b10100 5
#4040000
02
#4045000
12
#4045001
b10101 4
b10101 5
#4050000
02
#4055000
12
#4055001
b10110 4
b10110 5
#4060000
02
#4065000
12
#4065001
b10111 4
b10111 5
#4070000
02
#4075000
12
#4075001
b11000 4
b11000 5
#4080000
02
#4085000
12
#4085001
b11001 4
b11001 5
#4090000
02
#4095000
12
#4095001
b11010 4
b11010 5
#4100000
02
#4105000
12
#4105001
b11011 4
b11011 5
#4110000
02
#4115000
12
#4115001
b11100 4
b11100 5
#4120000
02
#4125000
12
#4125001
b11101 4
b11101 5
#4130000
02
#4135000
12
#4135001
b11110 4
b11110 5
#4140000
02
#4145000
12
#4145001
b11111 4
b11111 5
#4150000
02
#4155000
12
#4155001
b0 4
b0 5
13
#4160000
02
#4165000
12
#4165001
b1 4
b1 5
b1110 6
#4170000
02
#4175000
12
#4175001
b10 4
b10 5
#4180000
02
#4185000
12
#4185001
b11 4
b11 5
#4190000
02
#4195000
12
#4195001
b100 4
b100 5
#4200000
02
#4205000
12
#4205001
b101 4
b101 5
#4210000
02
#4215000
12
#4215001
b110 4
b110 5
#4220000
02
#4225000
12
#4225001
b111 4
b111 5
#4230000
02
#4235000
12
#4235001
b1000 4
b1000 5
#4240000
02
#4245000
12
#4245001
b1001 4
b1001 5
#4250000
02
#4255000
12
#4255001
b1010 4
b1010 5
#4260000
02
#4265000
12
#4265001
b1011 4
b1011 5
#4270000
02
#4275000
12
#4275001
b1100 4
b1100 5
#4280000
02
#4285000
12
#4285001
b1101 4
b1101 5
#4290000
02
#4295000
12
#4295001
b1110 4
b1110 5
03
#4300000
02
#4305000
12
#4305001
b1111 4
b1111 5
#4310000
02
#4315000
12
#4315001
b10000 4
b10000 5
#4320000
02
#4325000
12
#4325001
b10001 4
b10001 5
#4330000
02
#4335000
12
#4335001
b10010 4
b10010 5
#4340000
02
#4345000
12
#4345001
b10011 4
b10011 5
#4350000
02
#4355000
12
#4355001
b10100 4
b10100 5
#4360000
02
#4365000
12
#4365001
b10101 4
b10101 5
#4370000
02
#4375000
12
#4375001
b10110 4
b10110 5
#4380000
02
#4385000
12
#4385001
b10111 4
b10111 5
#4390000
02
#4395000
12
#4395001
b11000 4
b11000 5
#4400000
02
#4405000
12
#4405001
b11001 4
b11001 5
#4410000
02
#4415000
12
#4415001
b11010 4
b11010 5
#4420000
02
#4425000
12
#4425001
b11011 4
b11011 5
#4430000
02
#4435000
12
#4435001
b11100 4
b11100 5
#4440000
02
#4445000
12
#4445001
b11101 4
b11101 5
#4450000
02
#4455000
12
#4455001
b11110 4
b11110 5
#4460000
02
#4465000
12
#4465001
b11111 4
b11111 5
#4470000
02
#4475000
12
#4475001
b0 4
b0 5
13
#4480000
02
#4485000
12
#4485001
b1 4
b1 5
b1111 6
#4490000
02
#4495000
12
#4495001
b10 4
b10 5
#4500000
02
#4505000
12
#4505001
b11 4
b11 5
#4510000
02
#4515000
12
#4515001
b100 4
b100 5
#4520000
02
#4525000
12
#4525001
b101 4
b101 5
#4530000
02
#4535000
12
#4535001
b110 4
b110 5
#4540000
02
#4545000
12
#4545001
b111 4
b111 5
#4550000
02
#4555000
12
#4555001
b1000 4
b1000 5
#4560000
02
#4565000
12
#4565001
b1001 4
b1001 5
#4570000
02
#4575000
12
#4575001
b1010 4
b1010 5
#4580000
02
#4585000
12
#4585001
b1011 4
b1011 5
#4590000
02
#4595000
12
#4595001
b1100 4
b1100 5
#4600000
02
#4605000
12
#4605001
b1101 4
b1101 5
#4610000
02
#4615000
12
#4615001
b1110 4
b1110 5
#4620000
02
#4625000
12
#4625001
b1111 4
b1111 5
03
#4630000
02
#4635000
12
#4635001
b10000 4
b10000 5
#4640000
02
#4645000
12
#4645001
b10001 4
b10001 5
#4650000
02
#4655000
12
#4655001
b10010 4
b10010 5
#4660000
02
#4665000
12
#4665001
b10011 4
b10011 5
#4670000
02
#4675000
12
#4675001
b10100 4
b10100 5
#4680000
02
#4685000
12
#4685001
b10101 4
b10101 5
#4690000
02
#4695000
12
#4695001
b10110 4
b10110 5
#4700000
02
#4705000
12
#4705001
b10111 4
b10111 5
#4710000
02
#4715000
12
#4715001
b11000 4
b11000 5
#4720000
02
#4725000
12
#4725001
b11001 4
b11001 5
#4730000
02
#4735000
12
#4735001
b11010 4
b11010 5
#4740000
02
#4745000
12
#4745001
b11011 4
b11011 5
#4750000
02
#4755000
12
#4755001
b11100 4
b11100 5
#4760000
02
#4765000
12
#4765001
b11101 4
b11101 5
#4770000
02
#4775000
12
#4775001
b11110 4
b11110 5
#4780000
02
#4785000
12
#4785001
b11111 4
b11111 5
#4790000
02
#4795000
12
#4795001
b0 4
b0 5
13
#4800000
02
#4805000
12
#4805001
b1 4
b1 5
b10000 6
#4810000
02
#4815000
12
#4815001
b10 4
b10 5
#4820000
02
#4825000
12
#4825001
b11 4
b11 5
#4830000
02
#4835000
12
#4835001
b100 4
b100 5
#4840000
02
#4845000
12
#4845001
b101 4
b101 5
#4850000
02
#4855000
12
#4855001
b110 4
b110 5
#4860000
02
#4865000
12
#4865001
b111 4
b111 5
#4870000
02
#4875000
12
#4875001
b1000 4
b1000 5
#4880000
02
#4885000
12
#4885001
b1001 4
b1001 5
#4890000
02
#4895000
12
