blinky2/test.vcd
$comment Generated by nMigen $end
$date 2019-04-05 11:27:31.692011 $end
$timescale 100 ps $end
$scope module top $end
$var wire 1 0 rst $end
$var wire 1 1 clk $end
$var wire 1 2 o $end
$var wire 9 3 state $end
$var wire 20 4 stretcher $end
$upscope $end
$enddefinitions $end
#0
$dumpvars
00
01
12
b11000111 3
b0 4
$end
#5000
11
#5001
b1 4
#10000
01
#15000
11
#15001
b10 4
#20000
01
#24999
11
#25000
b11 4
#29999
01
#34999
11
#35000
b100 4
#40000
01
#45000
11
#45001
b101 4
#50000
01
#55000
11
#55001
b110 4
#60000
01
#65000
11
#65001
b111 4
#70000
01
#75000
11
#75001
b1000 4
#80000
01
#85000
11
#85001
b1001 4
#90000
01
#95000
11
#95001
b1010 4
#100000
01
#105000
11
#105001
b110001111 3
b1011 4
#110000
01
#115000
11
#115001
b0 4
#120000
01
#125000
11
#125001
b1 4
#130000
01
#135000
11
#135001
b10 4
#140000
01
#145000
11
#145001
b11 4
#150000
01
#155000
11
#155001
b100 4
#160000
01
#165000
11
#165001
b101 4
#170000
01
#174999
11
#175000
b110 4
#179999
01
#184999
11
#185000
b111 4
#189999
01
#194999
11
#195000
b1000 4
#199999
01
#204999
11
#205000
b1001 4
#209999
01
#214999
11
#215000
b1010 4
#219999
01
#224999
11
#225000
b100011111 3
b1011 4
02
#229999
01
#234999
11
#235000
b0 4
#239999
01
#244999
11
#245000
b1 4
#249999
01
#254999
11
#255000
b10 4
#259999
01
#264999
11
#265000
b11 4
#269999
01
#274999
11
#275000
b100 4
#279999
01
#284999
11
#285000
b101 4
#289999
01
#294999
11
#295000
b110 4
#299999
01
#304999
11
#305000
b111 4
#309999
01
#314999
11
#315000
b1000 4
#319999
01
#324999
11
#325000
b1001 4
#329999
01
#334999
11
#335000
b1010 4
#339999
01
#344999
11
#345000
b111110 3
b1011 4
12
#349999
01
#354999
11
#355000
b0 4
#359999
01
#364999
11
#365000
b1 4
#369999
01
#374999
11
#375000
b10 4
#379999
01
#384999
11
#385000
b11 4
#389999
01
#394999
11
#395000
b100 4
#399999
01
#404999
11
#405000
b101 4
#409999
01
#414999
11
#415000
b110 4
#419999
01
#424999
11
#425000
b111 4
#429999
01
#434999
11
#435000
b1000 4
#439999
01
#444999
11
#445000
b1001 4
#449999
01
#454999
11
#455000
b1010 4
#459999
01
#464999
11
#465000
b1111101 3
b1011 4
02
#469999
01
#474999
11
#475000
b0 4
#479999
01
#484999
11
#485000
b1 4
#489999
01
#494999
11
#495000
b10 4
#499999
01
#504999
11
#505000
b11 4
#509999
01
#514999
11
#515000
b100 4
#519999
01
#524999
11
#525000
b101 4
#529999
01
#534999
11
#535000
b110 4
#539999
01
#544999
11
#545000
b111 4
#549999
01
#554999
11
#555000
b1000 4
#559999
01
#564999
11
#565000
b1001 4
#569999
01
#574999
11
#575000
b1010 4
#579999
01
#584999
11
#585000
b11111010 3
b1011 4
12
#589999
01
#594999
11
#595000
b0 4
#599999
01
#604999
11
#605000
b1 4
#609999
01
#614999
11
#615000
b10 4
#619999
01
#624999
11
#625000
b11 4
#629999
01
#634999
11
#635000
b100 4
#639999
01
#644999
11
#645000
b101 4
#649999
01
#654999
11
#655000
b110 4
#659999
01
#664999
11
#665000
b111 4
#669999
01
#674999
11
#675000
b1000 4
#679999
01
#684999
11
#685000
b1001 4
#689999
01
#694999
11
#695000
b1010 4
#699999
01
#704999
11
#705000
b111110101 3
b1011 4
02
#709999
01
#714999
11
#715000
b0 4
#719999
01
#724999
11
#725000
b1 4
#729999
01
#734999
11
#735000
b10 4
#739999
01
#744999
11
#745000
b11 4
#749999
01
#754999
11
#755000
b100 4
#759999
01
#764999
11
#765000
b101 4
#769999
01
#774999
11
#775000
b110 4
#779999
01
#784999
11
#785000
b111 4
#789999
01
#794999
11
#795000
b1000 4
#799999
01
#804999
11
#805000
b1001 4
#809999
01
#814999
11
#815000
b1010 4
#819999
01
#824999
11
#825000
b111101010 3
b1011 4
#829999
01
#834999
11
#835000
b0 4
#839999
01
#844999
11
#845000
b1 4
#849999
01
#854999
11
#855000
b10 4
#859999
01
#864999
11
#865000
b11 4
#869999
01
#874999
11
#875000
b100 4
#879999
01
#884999
11
#885000
b101 4
#889999
01
#894999
11
#895000
b110 4
#899999
01
#904999
11
#905000
b111 4
#909999
01
#914999
11
#915000
b1000 4
#919999
01
#924999
11
#925000
b1001 4
#929999
01
#934999
11
#935000
b1010 4
#939999
01
#944999
11
#945000
b111010100 3
b1011 4
#949999
01
#954999
11
#955000
b0 4
#959999
01
#964999
11
#965000
b1 4
#969999
01
#974999
11
#975000
b10 4
#979999
01
#984999
11
#985000
b11 4
#989999
01
#994999
11
#995000
b100 4
#999999
01
#1004999
11
#1005000
b101 4
#1009999
01
#1014999
11
#1015000
b110 4
#1019999
01
#1024999
11
#1025000
b111 4
#1029999
01
#1034999
11
#1035000
b1000 4
#1039999
01
#1044999
11
#1045000
b1001 4
#1049999
01
#1054999
11
#1055000
b1010 4
#1059999
01
#1064999
11
#1065000
b110101000 3
b1011 4
#1069999
01
#1074999
11
#1075000
b0 4
#1079999
01
#1084999
11
#1085000
b1 4
#1089999
01
#1094999
11
#1095000
b10 4
#1099999
01
#1104999
11
#1105000
b11 4
#1109999
01
#1114999
11
#1115000
b100 4
#1119999
01
#1124999
11
#1125000
b101 4
#1129999
01
#1134999
11
#1135000
b110 4
#1139999
01
#1144999
11
#1145000
b111 4
#1149999
01
#1154999
11
#1155000
b1000 4
#1159999
01
#1164999
11
#1165000
b1001 4
#1169999
01
#1174999
11
#1175000
b1010 4
#1179999
01
#1184999
11
#1185000
b101010000 3
b1011 4
12
#1189999
01
#1194999
11
#1195000
b0 4
#1199999
01
#1204999
11
#1205000
b1 4
#1209999
01
#1214999
11
#1215000
b10 4
#1219999
01
#1224999
11
#1225000
b11 4
#1229999
01
#1234999
11
#1235000
b100 4
#1239999
01
#1244999
11
#1245000
b101 4
#1249999
01
#1254999
11
#1255000
b110 4
#1259999
01
#1264999
11
#1265000
b111 4
#1269999
01
#1274999
11
#1275000
b1000 4
#1279999
01
#1284999
11
#1285000
b1001 4
#1289999
01
#1294999
11
#1295000
b1010 4
#1299999
01
#1304999
11
#1305000
b10100001 3
b1011 4
02
#1309999
01
#1314999
11
#1315000
b0 4
#1319999
01
#1324999
11
#1325000
b1 4
#1329999
01
#1334999
11
#1335001
b10 4
#1340000
01
#1345000
11
#1345001
b11 4
#1350000
01
#1355000
11
#1355001
b100 4
#1360000
01
#1365000
11
#1365001
b101 4
#1370000
01
#1375000
11
#1375001
b110 4
#1380000
01
#1385000
11
#1385001
b111 4
#1390000
01
#1395000
11
#1395001
b1000 4
#1400000
01
#1405000
11
#1405001
b1001 4
#1410000
01
#1415000
11
#1415001
b1010 4
#1420000
01
#1425000
11
#1425001
b101000010 3
b1011 4
#1430000
01
#1435000
11
#1435001
b0 4
#1440000
01
#1445000
11
#1445001
b1 4
#1450000
01
#1455000
11
#1455001
b10 4
#1460000
01
#1465000
11
#1465001
b11 4
#1470000
01
#1475000
11
#1475001
b100 4
#1480000
01
#1485000
11
#1485001
b101 4
#1490000
01
#1495000
11
#1495001
b110 4
#1500000
01
#1505000
11
#1505001
b111 4
#1510000
01
#1515000
11
#1515001
b1000 4
#1520000
01
#1525000
11
#1525001
b1001 4
#1530000
01
#1535000
11
#1535001
b1010 4
#1540000
01
#1545000
11
#1545001
b10000100 3
b1011 4
#1550000
01
#1555000
11
#1555001
b0 4
#1560000
01
#1565000
11
#1565001
b1 4
#1570000
01
#1575000
11
#1575001
b10 4
#1580000
01
#1585000
11
#1585001
b11 4
#1590000
01
#1595000
11
#1595001
b100 4
#1600000
01
#1605000
11
#1605001
b101 4
#1610000
01
#1615000
11
#1615001
b110 4
#1620000
01
#1625000
11
#1625001
b111 4
#1630000
01
#1635000
11
#1635001
b1000 4
#1640000
01
#1645000
11
#1645001
b1001 4
#1650000
01
#1655000
11
#1655001
b1010 4
#1660000
01
#1665000
11
#1665001
b100001000 3
b1011 4
#1670000
01
#1675000
11
#1675001
b0 4
#1680000
01
#1685000
11
#1685001
b1 4
#1690000
01
#1695000
11
#1695001
b10 4
#1700000
01
#1705000
11
#1705001
b11 4
#1710000
01
#1715000
11
#1715001
b100 4
#1720000
01
#1725000
11
#1725001
b101 4
#1730000
01
#1735000
11
#1735001
b110 4
#1740000
01
#1745000
11
#1745001
b111 4
#1750000
01
#1755000
11
#1755001
b1000 4
#1760000
01
#1765000
11
#1765001
b1001 4
#1770000
01
#1775000
11
#1775001
b1010 4
#1780000
01
#1785000
11
#1785001
b10000 3
b1011 4
12
#1790000
01
#1795000
11
#1795001
b0 4
#1800000
01
#1805000
11
#1805001
b1 4
#1810000
01
#1815000
11
#1815001
b10 4
#1820000
01
#1825000
11
#1825001
b11 4
#1830000
01
#1835000
11
#1835001
b100 4
#1840000
01
#1845000
11
#1845001
b101 4
#1850000
01
#1855000
11
#1855001
b110 4
#1860000
01
#1865000
11
#1865001
b111 4
#1870000
01
#1875000
11
#1875001
b1000 4
#1880000
01
#1885000
11
#1885001
b1001 4
#1890000
01
#1895000
11
#1895001
b1010 4
#1900000
01
#1905000
11
#1905001
b100001 3
b1011 4
#1910000
01
#1915000
11
#1915001
b0 4
#1920000
01
#1925000
11
#1925001
b1 4
#1930000
01
#1935000
11
#1935001
b10 4
#1940000
01
#1945000
11
#1945001
b11 4
#1950000
01
#1955000
11
#1955001
b100 4
#1960000
01
#1965000
11
#1965001
b101 4
#1970000
01
#1975000
11
#1975001
b110 4
#1980000
01
#1985000
11
#1985001
b111 4
#1990000
01
#1995000
11
#1995001
b1000 4
#2000000
01
#2005000
11
#2005001
b1001 4
#2010000
01
#2015000
11
#2015001
b1010 4
#2020000
01
#2025000
11
#2025001
b1000011 3
b1011 4
02
#2030000
01
#2035000
11
#2035001
b0 4
#2040000
01
#2045000
11
#2045001
b1 4
#2050000
01
#2055000
11
#2055001
b10 4
#2060000
01
#2065000
11
#2065001
b11 4
#2070000
01
#2075000
11
#2075001
b100 4
#2080000
01
#2085000
11
#2085001
b101 4
#2090000
01
#2095000
11
#2095001
b110 4
#2100000
01
#2105000
11
#2105001
b111 4
#2110000
01
#2115000
11
#2115001
b1000 4
#2120000
01
#2125000
11
#2125001
b1001 4
#2130000
01
#2135000
11
#2135001
b1010 4
#2140000
01
#2145000
11
#2145001
b10000110 3
b1011 4
12
#2150000
01
#2155000
11
#2155001
b0 4
#2160000
01
#2165000
11
#2165001
b1 4
#2170000
01
#2175000
11
#2175001
b10 4
#2180000
01
#2185000
11
#2185001
b11 4
#2190000
01
#2195000
11
#2195001
b100 4
#2200000
01
#2205000
11
#2205001
b101 4
#2210000
01
#2215000
11
#2215001
b110 4
#2220000
01
#2225000
11
#2225001
b111 4
#2230000
01
#2235000
11
#2235001
b1000 4
#2240000
01
#2245000
11
#2245001
b1001 4
#2250000
01
#2255000
11
#2255001
b1010 4
#2260000
01
#2265000
11
#2265001
b100001101 3
b1011 4
#2270000
01
#2275000
11
#2275001
b0 4
#2280000
01
#2285000
11
#2285001
b1 4
#2290000
01
#2295000
11
#2295001
b10 4
#2300000
01
#2305000
11
#2305001
b11 4
#2310000
01
#2315000
11
#2315001
b100 4
#2320000
01
#2325000
11
#2325001
b101 4
#2330000
01
#2335000
11
#2335001
b110 4
#2340000
01
#2345000
11
#2345001
b111 4
#2350000
01
#2355000
11
#2355001
b1000 4
#2360000
01
#2365000
11
#2365001
b1001 4
#2370000
01
#2375000
11
#2375001
b1010 4
#2380000
01
#2385000
11
#2385001
b11011 3
b1011 4
#2390000
01
#2395000
11
#2395001
b0 4
#2400000
01
#2405000
11
#2405001
b1 4
#2410000
01
#2415000
11
#2415001
b10 4
#2420000
01
#2425000
11
#2425001
b11 4
#2430000
01
#2435000
11
#2435001
b100 4
#2440000
01
#2445000
11
#2445001
b101 4
#2450000
01
#2455000
11
#2455001
b110 4
#2460000
01
#2465000
11
#2465001
b111 4
#2470000
01
#2475000
11
#2475001
b1000 4
#2480000
01
#2485000
11
#2485001
b1001 4
#2490000
01
#2495000
11
#2495001
b1010 4
#2500000
01
#2505000
11
#2505001
b110111 3
b1011 4
02
#2510000
01
#2515000
11
#2515001
b0 4
#2520000
01
#2525000
11
#2525001
b1 4
#2530000
01
#2535000
11
#2535001
b10 4
#2540000
01
#2545000
11
#2545001
b11 4
#2550000
01
#2555000
11
#2555001
b100 4
#2560000
01
#2565000
11
#2565001
b101 4
#2570000
01
#2575000
11
#2575001
b110 4
#2580000
01
#2585000
11
#2585001
b111 4
#2590000
01
#2595000
11
#2595001
b1000 4
#2600000
01
#2605000
11
#2605001
b1001 4
#2610000
01
#2615000
11
#2615001
b1010 4
#2620000
01
#2625000
11
#2625001
b1101110 3
b1011 4
#2630000
01
#2635000
11
#2635001
b0 4
#2640000
01
#2645000
11
#2645001
b1 4
#2650000
01
#2655000
11
#2655001
b10 4
#2660000
01
#2665000
11
#2665001
b11 4
#2670000
01
#2675000
11
#2675001
b100 4
#2680000
01
#2685000
11
#2685001
b101 4
#2690000
01
#2695000
11
#2695001
b110 4
#2700000
01
#2705000
11
#2705001
b111 4
#2710000
01
#2715000
11
#2715001
b1000 4
#2720000
01
#2725000
11
#2725001
b1001 4
#2730000
01
#2735000
11
#2735001
b1010 4
#2740000
01
#2745000
11
#2745001
b11011100 3
b1011 4
12
#2750000
01
#2755000
11
#2755001
b0 4
#2760000
01
#2765000
11
#2765001
b1 4
#2770000
01
#2775000
11
#2775001
b10 4
#2780000
01
#2785000
11
#2785001
b11 4
#2790000
01
#2795000
11
#2795001
b100 4
#2800000
01
#2805000
11
#2805001
b101 4
#2810000
01
#2815000
11
#2815001
b110 4
#2820000
01
#2825000
11
#2825001
b111 4
#2830000
01
#2835000
11
#2835001
b1000 4
#2840000
01
#2845000
11
#2845001
b1001 4
#2850000
01
#2855000
11
#2855001
b1010 4
#2860000
01
#2865000
11
#2865001
b110111001 3
b1011 4
#2870000
01
#2875000
11
#2875001
b0 4
#2880000
01
#2885000
11
#2885001
b1 4
#2890000
01
#2895000
11
#2895001
b10 4
#2900000
01
#2905000
11
#2905001
b11 4
#2910000
01
#2915000
11
#2915001
b100 4
#2920000
01
#2925000
11
#2925001
b101 4
#2930000
01
#2935000
11
#2935001
b110 4
#2940000
01
#2945000
11
#2945001
b111 4
#2950000
01
#2955000
11
#2955001
b1000 4
#2960000
01
#2965000
11
#2965001
b1001 4
#2970000
01
#2975000
11
#2975001
b1010 4
#2980000
01
#2985000
11
#2985001
b101110011 3
b1011 4
02
#2990000
01
#2995000
11
#2995001
b0 4
#3000000
01
#3005000
11
#3005001
b1 4
#3010000
01
#3015000
11
#3015001
b10 4
#3020000
01
#3025000
11
#3025001
b11 4
#3030000
01
#3035000
11
#3035001
b100 4
#3040000
01
#3045000
11
#3045001
b101 4
#3050000
01
#3055000
11
#3055001
b110 4
#3060000
01
#3065000
11
#3065001
b111 4
#3070000
01
#3075000
11
#3075001
b1000 4
#3080000
01
#3085000
11
#3085001
b1001 4
#3090000
01
#3095000
11
#3095001
b1010 4
#3100000
01
#3105000
11
#3105001
b11100110 3
b1011 4
12
#3110000
01
#3115000
11
#3115001
b0 4
#3120000
01
#3125000
11
#3125001
b1 4
#3130000
01
#3135000
11
#3135001
b10 4
#3140000
01
#3145000
11
#3145001
b11 4
#3150000
01
#3155000
11
#3155001
b100 4
#3160000
01
#3165000
11
#3165001
b101 4
#3170000
01
#3175000
11
#3175001
b110 4
#3180000
01
#3185000
11
#3185001
b111 4
#3190000
01
#3195000
11
#3195001
b1000 4
#3200000
01
#3205000
11
#3205001
b1001 4
#3210000
01
#3215000
11
#3215001
b1010 4
#3220000
01
#3225000
11
#3225001
b111001101 3
b1011 4
#3230000
01
#3235000
11
#3235001
b0 4
#3240000
01
#3245000
11
#3245001
b1 4
#3250000
01
#3255000
11
#3255001
b10 4
#3260000
01
#3265000
11
#3265001
b11 4
#3270000
01
#3275000
11
#3275001
b100 4
#3280000
01
#3285000
11
#3285001
b101 4
#3290000
01
#3295000
11
#3295001
b110 4
#3300000
01
#3305000
11
#3305001
b111 4
#3310000
01
#3315000
11
#3315001
b1000 4
#3320000
01
#3325000
11
#3325001
b1001 4
#3330000
01
#3335000
11
#3335001
b1010 4
#3340000
01
#3345000
11
#3345001
b110011011 3
b1011 4
#3350000
01
#3355000
11
#3355001
b0 4
#3360000
01
#3365000
11
#3365001
b1 4
#3370000
01
#3375000
11
#3375001
b10 4
#3380000
01
#3385000
11
#3385001
b11 4
#3390000
01
#3395000
11
#3395001
b100 4
#3400000
01
#3405000
11
#3405001
b101 4
#3410000
01
#3415000
11
#3415001
b110 4
#3420000
01
#3425000
11
#3425001
b111 4
#3430000
01
#3435000
11
#3435001
b1000 4
#3440000
01
#3445000
11
#3445001
b1001 4
#3450000
01
#3455000
11
#3455001
b1010 4
#3460000
01
#3465000
11
#3465001
b100110111 3
b1011 4
#3470000
01
#3475000
11
#3475001
b0 4
#3480000
01
#3485000
11
#3485001
b1 4
#3490000
01
#3495000
11
#3495001
b10 4
#3500000
01
#3505000
11
#3505001
b11 4
#3510000
01
#3515000
11
#3515001
b100 4
#3520000
01
#3525000
11
#3525001
b101 4
#3530000
01
#3535000
11
#3535001
b110 4
#3540000
01
#3545000
11
#3545001
b111 4
#3550000
01
#3555000
11
#3555001
b1000 4
#3560000
01
#3565000
11
#3565001
b1001 4
#3570000
01
#3575000
11
#3575001
b1010 4
#3580000
01
#3585000
11
#3585001
b1101111 3
b1011 4
#3590000
01
#3595000
11
#3595001
b0 4
#3600000
01
#3605000
11
#3605001
b1 4
#3610000
01
#3615000
11
#3615001
b10 4
#3620000
01
#3625000
11
#3625001
b11 4
#3630000
01
#3635000
11
#3635001
b100 4
#3640000
01
#3645000
11
#3645001
b101 4
#3650000
01
#3655000
11
#3655001
b110 4
#3660000
01
#3665000
11
#3665001
b111 4
#3670000
01
#3675000
11
#3675001
b1000 4
#3680000
01
#3685000
11
#3685001
b1001 4
#3690000
01
#3695000
11
#3695001
b1010 4
#3700000
01
#3705000
11
#3705001
b11011111 3
b1011 4
#3710000
01
#3715000
11
#3715001
b0 4
#3720000
01
#3725000
11
#3725001
b1 4
#3730000
01
#3735000
11
#3735001
b10 4
#3740000
01
#3745000
11
#3745001
b11 4
#3750000
01
#3755000
11
#3755001
b100 4
#3760000
01
#3765000
11
#3765001
b101 4
#3770000
01
#3775000
11
#3775001
b110 4
#3780000
01
#3785000
11
#3785001
b111 4
#3790000
01
#3795000
11
#3795001
b1000 4
#3800000
01
#3805000
11
#3805001
b1001 4
#3810000
01
#3815000
11
#3815001
b1010 4
#3820000
01
#3825000
11
#3825001
b110111111 3
b1011 4
02
#3830000
01
#3835000
11
#3835001
b0 4
#3840000
01
#3845000
11
#3845001
b1 4
#3850000
01
#3855000
11
#3855001
b10 4
#3860000
01
#3865000
11
#3865001
b11 4
#3870000
01
#3875000
11
#3875001
b100 4
#3880000
01
#3885000
11
#3885001
b101 4
#3890000
01
#3895000
11
#3895001
b110 4
#3900000
01
#3905000
11
#3905001
b111 4
#3910000
01
#3915000
11
#3915001
b1000 4
#3920000
01
#3925000
11
#3925001
b1001 4
#3930000
01
#3935000
11
#3935001
b1010 4
#3940000
01
#3945000
11
#3945001
b101111110 3
b1011 4
12
#3950000
01
#3955000
11
#3955001
b0 4
#3960000
01
#3965000
11
#3965001
b1 4
#3970000
01
#3975000
11
#3975001
b10 4
#3980000
01
#3985000
11
#3985001
b11 4
#3990000
01
#3995000
11
#3995001
b100 4
#4000000
01
#4005000
11
#4005001
b101 4
#4010000
01
#4015000
11
#4015001
b110 4
#4020000
01
#4025000
11
#4025001
b111 4
#4030000
01
#4035000
11
#4035001
b1000 4
#4040000
01
#4045000
11
#4045001
b1001 4
#4050000
01
#4055000
11
#4055001
b1010 4
#4060000
01
#4065000
11
#4065001
b11111101 3
b1011 4
#4070000
01
#4075000
11
#4075001
b0 4
#4080000
01
#4085000
11
#4085001
b1 4
#4090000
01
#4095000
11
#4095001
b10 4
#4100000
01
#4105000
11
#4105001
b11 4
#4110000
01
#4115000
11
#4115001
b100 4
#4120000
01
#4125000
11
#4125001
b101 4
#4130000
01
#4135000
11
#4135001
b110 4
#4140000
01
#4145000
11
#4145001
b111 4
#4150000
01
#4155000
11
#4155001
b1000 4
#4160000
01
#4165000
11
#4165001
b1001 4
#4170000
01
#4175000
11
#4175001
b1010 4
#4180000
01
#4185000
11
#4185001
b111111011 3
b1011 4
#4190000
01
#4195000
11
#4195001
b0 4
#4200000
01
#4205000
11
#4205001
b1 4
#4210000
01
#4215000
11
#4215001
b10 4
#4220000
01
#4225000
11
#4225001
b11 4
#4230000
01
#4235000
11
#4235001
b100 4
#4240000
01
#4245000
11
#4245001
b101 4
#4250000
01
#4255000
11
#4255001
b110 4
#4260000
01
#4265000
11
#4265001
b111 4
#4270000
01
#4275000
11
#4275001
b1000 4
#4280000
01
#4285000
11
#4285001
b1001 4
#4290000
01
#4295000
11
#4295001
b1010 4
#4300000
01
#4305000
11
#4305001
b111110111 3
b1011 4
#4310000
01
#4315000
11
#4315001
b0 4
#4320000
01
#4325000
11
#4325001
b1 4
#4330000
01
#4335000
11
#4335001
b10 4
#4340000
01
#4345000
11
#4345001
b11 4
#4350000
01
#4355000
11
#4355001
b100 4
#4360000
01
#4365000
11
#4365001
b101 4
#4370000
01
#4375000
11
#4375001
b110 4
#4380000
01
#4385000
11
#4385001
b111 4
#4390000
01
#4395000
11
#4395001
b1000 4
#4400000
01
#4405000
11
#4405001
b1001 4
#4410000
01
#4415000
11
#4415001
b1010 4
#4420000
01
#4425000
11
#4425001
b111101111 3
b1011 4
#4430000
01
#4435000
11
#4435001
b0 4
#4440000
01
#4445000
11
#4445001
b1 4
#4450000
01
#4455000
11
#4455001
b10 4
#4460000
01
#4465000
11
#4465001
b11 4
#4470000
01
#4475000
11
#4475001
b100 4
#4480000
01
#4485000
11
#4485001
b101 4
#4490000
01
#4495000
11
#4495001
b110 4
#4500000
01
#4505000
11
#4505001
b111 4
#4510000
01
#4515000
11
#4515001
b1000 4
#4520000
01
#4525000
11
#4525001
b1001 4
#4530000
01
#4535000
11
#4535001
b1010 4
#4540000
01
#4545000
11
#4545001
b111011111 3
b1011 4
02
#4550000
01
#4555000
11
#4555001
b0 4
#4560000
01
#4565000
11
#4565001
b1 4
#4570000
01
#4575000
11
#4575001
b10 4
#4580000
01
#4585000
11
#4585001
b11 4
#4590000
01
#4595000
11
#4595001
b100 4
#4600000
01
#4605000
11
#4605001
b101 4
#4610000
01
#4615000
11
#4615001
b110 4
#4620000
01
#4625000
11
#4625001
b111 4
#4630000
01
#4635000
11
#4635001
b1000 4
#4640000
01
#4645000
11
#4645001
b1001 4
#4650000
01
#4655000
11
#4655001
b1010 4
#4660000
01
#4665000
11
#4665001
b110111110 3
b1011 4
12
#4670000
01
#4675000
11
#4675001
b0 4
#4680000
01
#4685000
11
#4685001
b1 4
#4690000
01
#4695000
11
#4695001
b10 4
#4700000
01
#4705000
11
#4705001
b11 4
#4710000
01
#4715000
11
#4715001
b100 4
#4720000
01
#4725000
11
#4725001
b101 4
#4730000
01
#4735000
11
#4735001
b110 4
#4740000
01
#4745000
11
#4745001
b111 4
#4750000
01
#4755000
11
#4755001
b1000 4
#4760000
01
#4765000
11
#4765001
b1001 4
#4770000
01
#4775000
11
#4775001
b1010 4
#4780000
01
#4785000
11
#4785001
b101111101 3
b1011 4
#4790000
01
#4795000
11
#4795001
b0 4
#4800000
01
#4805000
11
#4805001
b1 4
#4810000
01
#4815000
11
#4815001
b10 4
#4820000
01
#4825000
11
#4825001
b11 4
#4830000
01
#4835000
11
#4835001
b100 4
#4840000
01
#4845000
11
#4845001
b101 4
#4850000
01
#4855000
11
#4855001
b110 4
#4860000
01
#4865000
11
#4865001
b111 4
#4870000
01
#4875000
11
#4875001
b1000 4
#4880000
01
#4885000
11
#4885001
b1001 4
#4890000
01
#4895000
11
#4895001
b1010 4
#4900000
01
#4905000
11
#4905001
b11111011 3
b1011 4
02
#4910000
01
#4915000
11
#4915001
b0 4
#4920000
01
#4925000
11
#4925001
b1 4
#4930000
01
#4935000
11
#4935001
b10 4
#4940000
01
#4945000
11
#4945001
b11 4
#4950000
01
#4955000
11
#4955001
b100 4
#4960000
01
#4965000
11
#4965001
b101 4
#4970000
01
#4975000
11
#4975001
b110 4
#4980000
01
#4985000
11
#4985001
b111 4
#4990000
01
#4995000
11
#4995001
b1000 4
#5000000
01
#5005000
11
#5005001
b1001 4
#5010000
01
#5015000
11
#5015001
b1010 4
#5020000
01
#5025000
11
#5025001
b111110110 3
b1011 4
#5030000
01
#5035000
11
#5035001
b0 4
#5040000
01
#5045000
11
#5045001
b1 4
#5050000
01
#5055000
11
#5055001
b10 4
#5060000
01
#5065000
11
#5065001
b11 4
#5070000
01
#5075000
11
#5075001
b100 4
#5080000
01
#5085000
11
#5085001
b101 4
#5090000
01
#5095000
11
#5095001
b110 4
#5100000
01
#5105000
11
#5105001
b111 4
#5110000
01
#5115000
11
#5115001
b1000 4
#5120000
01
#5125000
11
#5125001
b1001 4
#5130000
01
#5135000
11
#5135001
b1010 4
#5140000
01
#5145000
11
#5145001
b111101100 3
b1011 4
12
#5150000
01
#5155000
11
#5155001
b0 4
#5160000
01
#5165000
11
#5165001
b1 4
#5170000
01
#5175000
11
#5175001
b10 4
#5180000
01
#5185000
11
#5185001
b11 4
#5190000
01
#5195000
11
#5195001
b100 4
#5200000
01
#5205000
11
#5205001
b101 4
#5210000
01
#5215000
11
#5215001
b110 4
#5220000
01
#5225000
11
#5225001
b111 4
#5230000
01
#5235000
11
#5235001
b1000 4
#5240000
01
#5245000
11
#5245001
b1001 4
#5250000
01
#5255000
11
#5255001
b1010 4
#5260000
01
#5265000
11
#5265001
b111011001 3
b1011 4
#5270000
01
#5275000
11
#5275001
b0 4
#5280000
01
#5285000
11
#5285001
b1 4
#5290000
01
#5295000
11
#5295001
b10 4
#5300000
01
#5305000
11
#5305001
b11 4
#5310000
01
#5315000
11
#5315001
b100 4
#5320000
01
#5325000
11
#5325001
b101 4
#5330000
01
#5335000
11
#5335001
b110 4
#5340000
01
#5345000
11
#5345001
b111 4
#5350000
01
#5355000
11
#5355001
b1000 4
#5360000
01
#5365000
11
#5365001
b1001 4
#5370000
01
#5375000
11
#5375001
b1010 4
#5380000
01
#5385000
11
#5385001
b110110011 3
b1011 4
02
#5390000
01
#5395000
11
#5395001
b0 4
#5400000
01
#5405000
11
#5405001
b1 4
#5410000
01
#5415000
11
#5415001
b10 4
#5420000
01
#5425000
11
#5425001
b11 4
#5430000
01
#5435000
11
#5435001
b100 4
#5440000
01
#5445000
11
#5445001
b101 4
#5450000
01
#5455000
11
#5455001
b110 4
#5460000
01
#5465000
11
#5465001
b111 4
#5470000
01
#5475000
11
#5475001
b1000 4
#5480000
01
#5485000
11
#5485001
b1001 4
#5490000
01
#5495000
11
#5495001
b1010 4
#5500000
01
#5505000
11
#5505001
b101100110 3
b1011 4
12
#5510000
01
#5515000
11
#5515001
b0 4
#5520000
01
#5525000
11
#5525001
b1 4
#5530000
01
#5535000
11
#5535001
b10 4
#5540000
01
#5545000
11
#5545001
b11 4
#5550000
01
#5555000
11
#5555001
b100 4
#5560000
01
#5565000
11
#5565001
b101 4
#5570000
01
#5575000
11
#5575001
b110 4
#5580000
01
#5585000
11
#5585001
b111 4
#5590000
01
#5595000
11
#5595001
b1000 4
#5600000
01
#5605000
11
#5605001
b1001 4
#5610000
01
#5615000
11
#5615001
b1010 4
#5620000
01
#5625000
11
#5625001
b11001101 3
b1011 4
02
#5630000
01
#5635000
11
#5635001
b0 4
#5640000
01
#5645000
11
#5645001
b1 4
#5650000
01
#5655000
11
#5655001
b10 4
#5660000
01
#5665000
11
#5665001
b11 4
#5670000
01
#5675000
11
#5675001
b100 4
#5680000
01
#5685000
11
#5685001
b101 4
#5690000
01
#5695000
11
#5695001
b110 4
#5700000
01
#5705000
11
#5705001
b111 4
#5710000
01
#5715000
11
#5715001
b1000 4
#5720000
01
#5725000
11
#5725001
b1001 4
#5730000
01
#5735000
11
#5735001
b1010 4
#5740000
01
#5745000
11
#5745001
b110011010 3
b1011 4
#5750000
01
#5755000
11
#5755001
b0 4
#5760000
01
#5765000
11
#5765001
b1 4
#5770000
01
#5775000
11
#5775001
b10 4
#5780000
01
#5785000
11
#5785001
b11 4
#5790000
01
#5795000
11
#5795001
b100 4
#5800000
01
#5805000
11
#5805001
b101 4
#5810000
01
#5815000
11
#5815001
b110 4
#5820000
01
#5825000
11
#5825001
b111 4
#5830000
01
#5835000
11
#5835001
b1000 4
#5840000
01
#5845000
11
#5845001
b1001 4
#5850000
01
#5855000
11
#5855001
b1010 4
#5860000
01
#5865000
11
#5865001
b100110100 3
b1011 4
12
#5870000
01
#5875000
11
#5875001
b0 4
#5880000
01
#5885000
11
#5885001
b1 4
#5890000
01
#5895000
11
#5895001
b10 4
#5900000
01
#5905000
11
#5905001
b11 4
#5909999
01
#5914999
11
#5915000
b100 4
#5919999
01
#5924999
11
#5925000
b101 4
#5929999
01
#5934999
11
#5935000
b110 4
#5939999
01
#5944999
11
#5945000
b111 4
#5949999
01
#5954999
11
#5955000
b1000 4
#5959999
01
#5964999
11
#5965000
b1001 4
#5969999
01
#5974999
11
#5975000
b1010 4
#5979999
01
#5984999
11
#5985000
b1101001 3
b1011 4
02
#5989999
01
#5994999
11
#5995000
b0 4
#5999999
01
#6004999
11
#6005000
b1 4
#6009999
01
#6014999
11
#6015000
b10 4
#6019999
01
#6024999
11
#6025000
b11 4
#6029999
01
#6034999
11
#6035000
b100 4
#6039999
01
#6044999
11
#6045000
b101 4
#6049999
01
