Archive/Boneless/ctrl.vcd
$comment Generated by nMigen $end
$date 2019-06-01 20:19:15.924956 $end
$timescale 100 ps $end
$scope module top $end
$var wire 1 0 tx_tx_ready $end
$var wire 8 1 tx_tx_data $end
$var wire 1 2 tx_rst $end
$var wire 1 3 tx_clk $end
$var wire 1 4 rx_rx_ack $end
$var wire 1 5 rx_rx $end
$scope module rx $end
$var wire 1 11 rst $end
$var wire 1 12 clk $end
$var wire 1 13 rx_ack $end
$var wire 1 14 rx $end
$var wire 1 15 rx_strobe $end
$var wire 2 16 rx_counter $end
$var wire 1 17 rx_ready $end
$var string 1 18 fsm_state $end
$var wire 8 19 rx_data $end
$var wire 3 1a rx_bitno $end
$var wire 1 1b rx_error $end
$upscope $end
$scope module tx $end
$var wire 1 6 tx_ready $end
$var wire 8 7 tx_data $end
$var wire 1 8 rst $end
$var wire 1 9 clk $end
$var wire 1 a tx_strobe $end
$var wire 2 b tx_counter $end
$var wire 1 c tx_ack $end
$var wire 8 d tx_latch $end
$var string 1 e fsm_state $end
$var wire 1 f tx $end
$var wire 3 10 tx_bitno $end
$upscope $end
$upscope $end
$enddefinitions $end
#0
$dumpvars
00
b0 1
02
03
04
15
06
b0 7
08
09
1a
b0 b
0c
b0 d
sIDLE/0 e
0f
b0 10
011
012
013
114
115
b0 16
017
sIDLE/0 18
b0 19
b0 1a
01b
$end
#24000000000000
19
13
112
#24000000000001
05
014
b11 b
1c
1f
b11 16
0a
015
#48000000000000
09
03
012
#72000000000000
19
13
112
#72000000000001
b10 b
b10 16
sSTART/1 18
#96000000000000
09
03
012
#120000000000000
19
13
112
#120000000000001
b1 b
b1 16
#144000000000000
09
03
012
#168000000000000
19
13
112
b0 b
b0 16
1a
115
#192000000000000
09
03
012
#216000000000000
19
13
112
15
114
b11 b
b11 16
sDATA/2 18
0a
015
#240000000000000
09
03
012
#264000000000000
19
13
112
b10 b
b10 16
#288000000000000
09
03
012
#312000000000000
19
13
112
#312000000000001
b1 b
b1 16
#336000000000000
09
03
012
#360000000000000
19
13
112
#360000000000001
b0 b
b0 16
1a
115
#384000000000000
09
03
012
#408000000000000
19
13
112
#408000000000001
05
014
b11 b
b11 16
b10000000 19
b1 1a
0a
015
#432000000000000
09
03
012
#456000000000000
19
13
112
#456000000000001
b10 b
b10 16
#480000000000000
09
03
012
#504000000000000
19
13
112
#504000000000001
b1 b
b1 16
#528000000000000
09
03
012
#552000000000000
19
13
112
#552000000000001
b0 b
b0 16
1a
115
#576000000000000
09
03
012
#600000000000000
19
13
112
#600000000000001
15
114
b11 b
b11 16
b1000000 19
b10 1a
0a
015
#624000000000000
09
03
012
#648000000000000
19
13
112
#648000000000001
b10 b
b10 16
#672000000000000
09
03
012
#696000000000000
19
13
112
#696000000000001
b1 b
b1 16
#720000000000000
09
03
012
#744000000000000
19
13
112
#744000000000001
b0 b
b0 16
1a
115
#768000000000000
09
03
012
#792000000000000
19
13
112
#792000000000001
05
014
b11 b
b11 16
b10100000 19
b11 1a
0a
015
#816000000000000
09
03
012
#840000000000000
19
13
112
#840000000000001
b10 b
b10 16
#864000000000000
09
03
012
#888000000000000
19
13
112
#888000000000001
b1 b
b1 16
#912000000000000
09
03
012
#936000000000000
19
13
112
#936000000000001
b0 b
b0 16
1a
115
#960000000000000
09
03
012
#984000000000000
19
13
112
#984000000000001
15
114
b11 b
b11 16
b1010000 19
b100 1a
0a
015
#1008000000000000
09
03
012
#1032000000000000
19
13
112
#1032000000000001
b10 b
b10 16
#1056000000000000
09
03
012
#1080000000000000
19
13
112
#1080000000000001
b1 b
b1 16
#1104000000000000
09
03
012
#1128000000000000
19
13
112
#1128000000000001
b0 b
b0 16
1a
115
#1152000000000000
09
03
012
#1176000000000000
19
13
112
#1176000000000001
05
014
b11 b
b11 16
b10101000 19
b101 1a
0a
015
#1200000000000000
09
03
012
#1224000000000000
19
13
112
#1224000000000001
b10 b
b10 16
#1248000000000000
09
03
012
#1272000000000000
19
13
112
#1272000000000001
b1 b
b1 16
#1296000000000000
09
03
012
#1320000000000000
19
13
112
b0 b
b0 16
1a
115
#1344000000000000
09
03
012
#1368000000000000
19
13
112
15
114
b11 b
b11 16
b1010100 19
b110 1a
0a
015
#1392000000000000
09
03
012
#1416000000000000
19
13
112
b10 b
b10 16
#1440000000000000
09
03
012
#1464000000000000
19
13
112
b1 b
b1 16
#1488000000000000
09
03
012
#1512000000000000
19
13
112
b0 b
b0 16
1a
115
#1536000000000000
09
03
012
#1560000000000000
19
13
112
05
014
b11 b
b11 16
b10101010 19
b111 1a
0a
015
#1584000000000000
09
03
012
#1608000000000000
19
13
112
b10 b
b10 16
#1632000000000000
09
03
012
#1656000000000000
19
13
112
b1 b
b1 16
#1680000000000000
09
03
012
#1704000000000000
19
13
112
b0 b
b0 16
1a
115
#1728000000000000
09
03
012
#1752000000000000
19
13
112
15
114
b11 b
b11 16
sSTOP/3 18
b1010101 19
b0 1a
0a
015
#1776000000000000
09
03
012
#1800000000000000
19
13
112
b10 b
b10 16
#1824000000000000
09
03
012
#1848000000000000
19
13
112
b1 b
b1 16
#1872000000000000
09
03
012
#1896000000000000
19
13
112
b0 b
b0 16
1a
115
#1920000000000000
09
03
012
#1944000000000000
19
13
112
b11 b
b11 16
sFULL/5 18
0a
015
#1968000000000000
09
03
012
#1992000000000000
19
13
112
b10 b
b10 16
117
#2016000000000000
09
03
012
#2040000000000000
19
13
112
b1 b
b1 16
#2064000000000000
09
03
012
#2088000000000000
19
13
112
b0 b
b0 16
1a
115
#2112000000000000
09
03
012
#2136000000000000
19
13
112
113
14
b11 b
b11 16
0a
015
#2160000000000000
09
03
012
#2184000000000000
19
13
112
b10 b
b10 16
sIDLE/0 18
#2208000000000000
09
03
012
#2232000000000000
19
13
112
b1 b
b1 16
017
#2256000000000000
09
03
012
#2280000000000000
19
13
112
#2280000000000001
013
04
05
014
b0 b
b0 16
1a
115
#2304000000000000
09
03
012
#2328000000000000
19
13
112
#2328000000000001
b11 b
b10 16
sSTART/1 18
0a
015
#2352000000000000
09
03
012
#2376000000000000
19
13
112
#2376000000000001
b10 b
b1 16
#2400000000000000
09
03
012
#2424000000000000
19
13
112
#2424000000000001
b1 b
b0 16
115
#2448000000000000
09
03
012
#2472000000000000
19
13
112
#2472000000000001
15
114
b0 b
b11 16
sDATA/2 18
1a
015
#2496000000000000
09
03
012
#2520000000000000
19
13
112
#2520000000000001
b11 b
b10 16
0a
#2544000000000000
09
03
012
#2568000000000000
19
13
112
#2568000000000001
b10 b
b1 16
#2592000000000000
09
03
012
#2616000000000000
19
13
112
#2616000000000001
b1 b
b0 16
115
#2640000000000000
09
03
012
#2664000000000000
19
13
112
#2664000000000001
b0 b
b11 16
b10101010 19
b1 1a
1a
015
#2688000000000000
09
03
012
#2712000000000000
19
13
112
#2712000000000001
b11 b
b10 16
0a
#2736000000000000
09
03
012
#2760000000000000
19
13
112
#2760000000000001
b10 b
b1 16
#2784000000000000
09
03
012
#2808000000000000
19
13
112
#2808000000000001
b1 b
b0 16
115
#2832000000000000
09
03
012
#2856000000000000
19
13
112
#2856000000000001
05
014
b0 b
b11 16
b11010101 19
b10 1a
1a
015
#2880000000000000
09
03
012
#2904000000000000
19
13
112
#2904000000000001
b11 b
b10 16
0a
#2928000000000000
09
03
012
#2952000000000000
19
13
112
#2952000000000001
b10 b
b1 16
#2976000000000000
09
03
012
#3000000000000000
19
13
112
#3000000000000001
b1 b
b0 16
115
#3024000000000000
09
03
012
#3048000000000000
19
13
112
#3048000000000001
b0 b
b11 16
b1101010 19
b11 1a
1a
015
#3072000000000000
09
03
012
#3096000000000000
19
13
112
#3096000000000001
b11 b
b10 16
0a
#3120000000000000
09
03
012
#3144000000000000
19
13
112
#3144000000000001
b10 b
b1 16
#3168000000000000
09
03
012
#3192000000000000
19
13
112
#3192000000000001
b1 b
b0 16
115
#3216000000000000
09
03
012
#3240000000000000
19
13
112
#3240000000000001
b0 b
b11 16
b110101 19
b100 1a
1a
015
#3264000000000000
09
03
012
#3288000000000000
19
13
112
#3288000000000001
b11 b
b10 16
0a
#3312000000000000
09
03
012
#3336000000000000
19
13
112
#3336000000000001
b10 b
b1 16
#3360000000000000
09
03
012
#3384000000000000
19
13
112
#3384000000000001
b1 b
b0 16
115
#3408000000000000
09
03
012
#3432000000000000
19
13
112
#3432000000000001
b0 b
b11 16
b11010 19
b101 1a
1a
015
#3456000000000000
09
03
012
#3480000000000000
19
13
112
#3480000000000001
b11 b
b10 16
0a
#3504000000000000
09
03
012
#3528000000000000
19
13
112
#3528000000000001
b10 b
b1 16
#3552000000000000
09
03
012
#3576000000000000
19
13
112
#3576000000000001
b1 b
b0 16
115
#3600000000000000
09
03
012
#3624000000000000
19
13
112
#3624000000000001
15
114
b0 b
b11 16
b1101 19
b110 1a
1a
015
#3648000000000000
09
03
012
#3672000000000000
19
13
112
#3672000000000001
b11 b
b10 16
0a
#3696000000000000
09
03
012
#3720000000000000
19
13
112
#3720000000000001
b10 b
b1 16
#3744000000000000
09
03
012
#3768000000000000
19
13
112
#3768000000000001
b1 b
b0 16
115
#3792000000000000
09
03
012
#3816000000000000
19
13
112
#3816000000000001
b0 b
b11 16
b10000110 19
b111 1a
1a
015
#3840000000000000
09
03
012
#3864000000000000
19
13
112
#3864000000000001
b11 b
b10 16
0a
#3888000000000000
09
03
012
#3912000000000000
19
13
112
#3912000000000001
b10 b
b1 16
#3936000000000000
09
03
012
#3960000000000000
19
13
112
#3960000000000001
b1 b
b0 16
115
#3984000000000000
09
03
012
#4008000000000000
19
13
112
#4008000000000001
b0 b
b11 16
sSTOP/3 18
b11000011 19
b0 1a
1a
015
#4032000000000000
09
03
012
#4056000000000000
19
13
112
#4056000000000001
b11 b
b10 16
0a
#4080000000000000
09
03
012
#4104000000000000
19
13
112
#4104000000000001
b10 b
b1 16
#4128000000000000
09
03
012
#4152000000000000
19
13
112
#4152000000000001
b1 b
b0 16
115
#4176000000000000
09
03
012
#4200000000000000
19
13
112
#4200000000000001
b0 b
b11 16
sFULL/5 18
1a
015
#4224000000000000
09
03
012
#4248000000000000
19
13
112
#4248000000000001
b11 b
b10 16
117
0a
#4272000000000000
09
03
012
#4296000000000000
19
13
112
#4296000000000001
b10 b
b1 16
#4320000000000000
09
03
012
#4344000000000000
19
13
112
#4344000000000001
b1 b
b0 16
115
#4368000000000000
09
03
012
#4392000000000000
19
13
112
#4392000000000001
113
14
b0 b
b11 16
1a
015
#4416000000000000
09
03
012
#4440000000000000
19
13
112
#4440000000000001
b11 b
b10 16
sIDLE/0 18
0a
#4464000000000000
09
03
012
#4488000000000000
19
13
112
#4488000000000001
b10 b
b1 16
017
#4512000000000000
09
03
012
#4536000000000000
19
13
112
#4536000000000001
013
04
05
014
b1 b
b0 16
115
#4560000000000000
09
03
012
#4584000000000000
19
13
112
#4584000000000001
b0 b
b10 16
sSTART/1 18
1a
015
#4608000000000000
09
03
012
#4632000000000000
19
13
112
#4632000000000001
b11 b
b1 16
0a
#4656000000000000
09
03
012
#4680000000000000
19
13
112
#4680000000000001
b10 b
b0 16
115
#4704000000000000
09
03
012
#4728000000000000
19
13
112
#4728000000000001
15
114
b1 b
b11 16
sDATA/2 18
015
#4752000000000000
09
03
012
#4776000000000000
19
13
112
#4776000000000001
b0 b
b10 16
1a
#4800000000000000
09
03
012
#4824000000000000
19
13
112
#4824000000000001
b11 b
b1 16
0a
#4848000000000000
09
03
012
#4872000000000000
19
13
112
#4872000000000001
b10 b
b0 16
115
#4896000000000000
09
03
012
#4920000000000000
19
13
112
#4920000000000001
05
014
b1 b
b11 16
b11100001 19
b1 1a
015
#4944000000000000
09
03
012
#4968000000000000
19
13
112
#4968000000000001
b0 b
b10 16
1a
#4992000000000000
09
03
012
#5016000000000000
19
13
112
#5016000000000001
b11 b
b1 16
0a
#5040000000000000
09
03
012
#5064000000000000
19
13
112
#5064000000000001
b10 b
b0 16
115
#5088000000000000
09
03
012
#5112000000000000
19
13
112
#5112000000000001
b1 b
b11 16
b1110000 19
b10 1a
015
#5136000000000000
09
03
012
#5160000000000000
19
13
112
#5160000000000001
b0 b
b10 16
1a
#5184000000000000
09
03
012
#5208000000000000
19
13
112
#5208000000000001
b11 b
b1 16
0a
#5232000000000000
09
03
012
#5256000000000000
19
13
112
#5256000000000001
b10 b
b0 16
115
#5280000000000000
09
03
012
#5304000000000000
19
13
112
#5304000000000001
b1 b
b11 16
b111000 19
b11 1a
015
#5328000000000000
09
03
012
#5352000000000000
19
13
112
#5352000000000001
b0 b
b10 16
1a
#5376000000000000
09
03
012
#5400000000000000
19
13
112
#5400000000000001
b11 b
b1 16
0a
#5424000000000000
09
03
012
#5448000000000000
19
13
112
#5448000000000001
b10 b
b0 16
115
#5472000000000000
09
03
012
#5496000000000000
19
13
112
#5496000000000001
b1 b
b11 16
b11100 19
b100 1a
015
#5520000000000000
09
03
012
#5544000000000000
19
13
112
#5544000000000001
b0 b
b10 16
1a
#5568000000000000
09
03
012
#5592000000000000
19
13
112
#5592000000000001
b11 b
b1 16
0a
#5616000000000000
09
03
012
#5640000000000000
19
13
112
#5640000000000001
b10 b
b0 16
115
#5664000000000000
09
03
012
#5688000000000000
19
13
112
#5688000000000001
b1 b
b11 16
b1110 19
b101 1a
015
#5712000000000000
09
03
012
#5736000000000000
19
13
112
#5736000000000001
b0 b
b10 16
1a
#5760000000000000
09
03
012
#5784000000000000
19
13
112
#5784000000000001
b11 b
b1 16
0a
#5808000000000000
09
03
012
#5832000000000000
19
13
112
#5832000000000001
b10 b
b0 16
115
#5856000000000000
09
03
012
#5880000000000000
19
13
112
#5880000000000001
b1 b
b11 16
b111 19
b110 1a
015
#5904000000000000
09
03
012
#5928000000000000
19
13
112
#5928000000000001
b0 b
b10 16
1a
#5952000000000000
09
03
012
#5976000000000000
19
13
112
#5976000000000001
b11 b
b1 16
0a
#6000000000000000
09
03
012
#6024000000000000
19
13
112
#6024000000000001
b10 b
b0 16
115
#6048000000000000
09
03
012
#6072000000000000
19
13
112
#6072000000000001
15
114
b1 b
b11 16
b11 19
b111 1a
015
#6096000000000000
09
03
012
#6120000000000000
19
13
112
#6120000000000001
b0 b
b10 16
1a
#6144000000000000
09
03
012
#6168000000000000
19
13
112
#6168000000000001
b11 b
b1 16
0a
#6192000000000000
09
03
012
#6216000000000000
19
13
112
#6216000000000001
b10 b
b0 16
115
#6240000000000000
09
03
012
#6264000000000000
19
13
112
#6264000000000001
b1 b
b11 16
sSTOP/3 18
b10000001 19
b0 1a
015
#6288000000000000
09
03
012
#6312000000000000
19
13
112
#6312000000000001
b0 b
b10 16
1a
#6336000000000000
09
03
012
#6360000000000000
19
13
112
#6360000000000001
b11 b
b1 16
0a
#6384000000000000
09
03
012
#6408000000000000
19
13
112
#6408000000000001
b10 b
b0 16
115
#6432000000000000
09
03
012
#6456000000000000
19
13
112
#6456000000000001
b1 b
b11 16
sFULL/5 18
015
#6480000000000000
09
03
012
#6504000000000000
19
13
112
#6504000000000001
b0 b
b10 16
117
1a
#6528000000000000
09
03
012
#6552000000000000
19
13
112
#6552000000000001
b11 b
b1 16
0a
#6576000000000000
09
03
012
#6600000000000000
19
13
112
#6600000000000001
b10 b
b0 16
115
#6624000000000000
09
03
012
#6648000000000000
19
13
112
#6648000000000001
113
14
b1 b
b11 16
015
#6672000000000000
09
03
012
#6696000000000000
19
13
112
#6696000000000001
b0 b
b10 16
sIDLE/0 18
1a
#6720000000000000
09
03
012
#6744000000000000
19
13
112
#6744000000000001
b11 b
b1 16
017
0a
#6768000000000000
09
03
012
#6792000000000000
19
13
112
#6792000000000001
013
04
05
014
b10 b
b0 16
115
#6816000000000000
09
03
012
#6840000000000000
19
13
112
#6840000000000001
b1 b
b10 16
sSTART/1 18
015
#6864000000000000
09
03
012
#6888000000000000
19
13
112
#6888000000000001
b0 b
b1 16
1a
#6912000000000000
09
03
012
#6936000000000000
19
13
112
#6936000000000001
b11 b
b0 16
0a
115
#6960000000000000
09
03
012
#6984000000000000
19
13
112
#6984000000000001
15
114
b10 b
b11 16
sDATA/2 18
015
#7008000000000000
09
03
012
#7032000000000000
19
13
112
#7032000000000001
b1 b
b10 16
#7056000000000000
09
03
012
#7080000000000000
19
13
112
#7080000000000001
b0 b
b1 16
1a
#7104000000000000
09
03
012
#7128000000000000
19
13
112
#7128000000000001
b11 b
b0 16
0a
115
#7152000000000000
09
03
012
#7176000000000000
19
13
112
#7176000000000001
05
014
b10 b
b11 16
b11000000 19
b1 1a
015
#7200000000000000
09
03
012
#7224000000000000
19
13
112
#7224000000000001
b1 b
b10 16
#7248000000000000
09
03
012
#7272000000000000
19
13
112
#7272000000000001
b0 b
b1 16
1a
#7296000000000000
09
03
012
#7320000000000000
19
13
112
#7320000000000001
b11 b
b0 16
0a
115
#7344000000000000
09
03
012
#7368000000000000
19
13
112
#7368000000000001
15
114
b10 b
b11 16
b1100000 19
b10 1a
015
#7392000000000000
09
03
012
#7416000000000000
19
13
112
#7416000000000001
b1 b
b10 16
#7440000000000000
09
03
012
#7464000000000000
19
13
112
#7464000000000001
b0 b
b1 16
1a
#7488000000000000
09
03
012
#7512000000000000
19
13
112
#7512000000000001
b11 b
b0 16
0a
115
#7536000000000000
09
03
012
#7560000000000000
19
13
112
#7560000000000001
05
014
b10 b
b11 16
b10110000 19
b11 1a
015
#7584000000000000
09
03
012
#7608000000000000
19
13
112
#7608000000000001
b1 b
b10 16
#7632000000000000
09
03
012
#7656000000000000
19
13
112
#7656000000000001
b0 b
b1 16
1a
#7680000000000000
09
03
012
#7704000000000000
19
13
112
#7704000000000001
b11 b
b0 16
0a
115
#7728000000000000
09
03
012
#7752000000000000
19
13
112
#7752000000000001
b10 b
b11 16
b1011000 19
b100 1a
015
#7776000000000000
09
03
012
#7800000000000000
19
13
112
#7800000000000001
b1 b
b10 16
#7824000000000000
09
03
012
#7848000000000000
19
13
112
#7848000000000001
b0 b
b1 16
1a
#7872000000000000
09
03
012
#7896000000000000
19
13
112
#7896000000000001
b11 b
b0 16
0a
115
#7920000000000000
09
03
012
#7944000000000000
19
13
112
#7944000000000001
15
114
b10 b
b11 16
b101100 19
b101 1a
015
#7968000000000000
09
03
012
#7992000000000000
19
13
112
#7992000000000001
b1 b
b10 16
#8016000000000000
09
03
012
#8040000000000000
19
13
112
#8040000000000001
b0 b
b1 16
1a
#8064000000000000
09
03
012
#8088000000000000
19
13
112
#8088000000000001
b11 b
b0 16
0a
115
#8112000000000000
09
03
012
#8136000000000000
19
13
112
#8136000000000001
05
014
b10 b
b11 16
b10010110 19
b110 1a
015
#8160000000000000
09
03
012
#8184000000000000
19
13
112
#8184000000000001
b1 b
b10 16
#8208000000000000
09
03
012
#8232000000000000
19
13
112
#8232000000000001
b0 b
b1 16
1a
#8256000000000000
09
03
012
#8280000000000000
19
13
112
#8280000000000001
b11 b
b0 16
0a
115
#8304000000000000
09
03
012
#8328000000000000
19
13
112
#8328000000000001
15
114
b10 b
b11 16
b1001011 19
b111 1a
015
#8352000000000000
09
03
012
#8376000000000000
19
13
112
#8376000000000001
b1 b
b10 16
#8400000000000000
09
03
012
#8424000000000000
19
13
112
#8424000000000001
b0 b
b1 16
1a
#8448000000000000
09
03
012
#8472000000000000
19
13
112
#8472000000000001
b11 b
b0 16
0a
115
#8496000000000000
09
03
012
#8520000000000000
19
13
112
#8520000000000001
b10 b
b11 16
sSTOP/3 18
b10100101 19
b0 1a
015
#8544000000000000
09
03
012
#8568000000000000
19
13
112
#8568000000000001
b1 b
b10 16
#8592000000000000
09
03
012
#8616000000000000
19
13
112
#8616000000000001
b0 b
b1 16
1a
#8640000000000000
09
03
012
#8664000000000000
19
13
112
#8664000000000001
b11 b
b0 16
0a
115
#8688000000000000
09
03
012
#8712000000000000
19
13
112
#8712000000000001
b10 b
b11 16
sFULL/5 18
015
#8736000000000000
09
03
012
#8760000000000000
19
13
112
#8760000000000001
b1 b
b10 16
117
#8784000000000000
09
03
012
#8808000000000000
19
13
112
#8808000000000001
b0 b
b1 16
1a
#8832000000000000
09
03
012
#8856000000000000
19
13
112
#8856000000000001
b11 b
b0 16
0a
115
#8880000000000000
09
03
012
#8904000000000000
19
13
112
#8904000000000001
113
14
b10 b
b11 16
015
#8928000000000000
09
03
012
#8952000000000000
19
13
112
#8952000000000001
b1 b
b10 16
sIDLE/0 18
#8976000000000000
09
03
012
#9000000000000000
19
13
112
#9000000000000001
b0 b
b1 16
017
1a
#9024000000000000
09
03
012
#9048000000000000
19
13
112
013
04
05
014
b11 b
b0 16
0a
115
#9072000000000000
09
03
012
#9096000000000000
19
13
112
b10 b
b10 16
sSTART/1 18
015
#9120000000000000
09
03
012
#9144000000000000
19
13
112
b1 b
b1 16
#9168000000000000
09
03
012
#9192000000000000
19
13
112
b0 b
b0 16
1a
115
#9216000000000000
09
03
012
#9240000000000000
19
13
112
15
114
b11 b
b11 16
sDATA/2 18
0a
015
#9264000000000000
09
03
012
#9288000000000000
19
13
112
b10 b
b10 16
#9312000000000000
09
03
012
#9336000000000000
19
13
112
b1 b
b1 16
#9360000000000000
09
03
012
#9384000000000000
19
13
112
b0 b
b0 16
1a
115
#9408000000000000
09
03
012
#9432000000000000
19
13
112
b11 b
b11 16
b11010010 19
b1 1a
0a
015
#9456000000000000
09
03
012
#9480000000000000
19
13
112
b10 b
b10 16
#9504000000000000
09
03
012
#9528000000000000
19
13
112
b1 b
b1 16
#9552000000000000
09
03
012
#9576000000000000
19
13
112
b0 b
b0 16
1a
115
#9600000000000000
09
03
012
#9624000000000000
19
13
112
b11 b
b11 16
b11101001 19
b10 1a
0a
015
#9648000000000000
09
03
012
#9672000000000000
19
13
112
b10 b
b10 16
#9696000000000000
09
03
012
#9720000000000000
19
13
112
b1 b
b1 16
#9744000000000000
09
03
012
#9768000000000000
19
13
112
b0 b
b0 16
1a
115
#9792000000000000
09
03
012
#9816000000000000
19
13
112
b11 b
b11 16
b11110100 19
b11 1a
0a
015
#9840000000000000
09
03
012
#9864000000000000
19
13
112
b10 b
b10 16
#9888000000000000
09
03
012
#9912000000000000
19
13
112
b1 b
b1 16
#9936000000000000
09
03
012
#9960000000000000
19
13
112
b0 b
b0 16
1a
115
#9984000000000000
09
03
012
#10008000000000000
19
13
112
b11 b
b11 16
b11111010 19
b100 1a
0a
015
#10032000000000000
09
03
012
#10056000000000000
19
13
112
b10 b
b10 16
#10080000000000000
09
03
012
#10104000000000000
19
13
112
b1 b
b1 16
#10128000000000000
09
03
012
#10152000000000000
19
13
112
b0 b
b0 16
1a
115
#10176000000000000
09
03
012
#10200000000000000
19
13
112
b11 b
b11 16
b11111101 19
b101 1a
0a
015
#10224000000000000
09
03
012
#10248000000000000
19
13
112
b10 b
b10 16
#10272000000000000
09
03
012
#10296000000000000
19
13
112
b1 b
b1 16
#10320000000000000
09
03
012
#10344000000000000
19
13
112
b0 b
b0 16
1a
115
#10368000000000000
09
03
012
#10392000000000000
19
13
112
b11 b
b11 16
b11111110 19
b110 1a
0a
015
#10416000000000000
09
03
012
#10440000000000000
19
13
112
b10 b
b10 16
#10464000000000000
09
03
012
#10488000000000000
19
13
112
b1 b
b1 16
#10512000000000000
09
03
012
#10536000000000000
19
13
112
b0 b
b0 16
1a
115
#10560000000000000
09
03
012
#10584000000000000
19
13
112
b11 b
b11 16
b11111111 19
b111 1a
0a
015
#10608000000000000
09
03
012
#10632000000000000
19
13
112
b10 b
b10 16
#10656000000000000
09
03
012
#10680000000000000
19
13
112
b1 b
b1 16
#10704000000000000
09
03
012
#10728000000000000
19
13
112
b0 b
b0 16
1a
115
#10752000000000000
09
03
012
#10776000000000000
19
13
112
b11 b
b11 16
sSTOP/3 18
b0 1a
0a
015
#10800000000000000
09
03
012
#10824000000000000
19
13
112
b10 b
b10 16
#10848000000000000
09
03
012
#10872000000000000
19
13
112
b1 b
b1 16
#10896000000000000
09
03
012
#10920000000000000
19
13
112
b0 b
b0 16
1a
115
#10944000000000000
09
03
012
#10968000000000000
19
13
112
b11 b
b11 16
sFULL/5 18
0a
015
#10992000000000000
09
03
012
#11016000000000000
19
13
112
b10 b
b10 16
117
#11040000000000000
09
03
012
#11064000000000000
19
13
112
b1 b
b1 16
#11088000000000000
09
03
012
#11112000000000000
19
13
112
b0 b
b0 16
1a
115
#11136000000000000
09
03
012
#11160000000000000
19
13
112
113
14
b11 b
b11 16
0a
015
#11184000000000000
09
03
012
#11208000000000000
19
13
112
b10 b
b10 16
sIDLE/0 18
#11232000000000000
09
03
012
#11256000000000000
19
13
112
b1 b
b1 16
017
#11280000000000000
09
03
012
#11304000000000000
19
13
112
013
04
b1010101 7
b1010101 1
10
16
b0 b
b0 16
1a
115
#11328000000000000
09
03
012
#11352000000000000
19
13
112
b11 b
b1010101 d
sSTART/1 e
b11 16
0a
015
#11376000000000000
09
03
012
#11400000000000000
19
13
112
b10 b
b10 16
#11424000000000000
09
03
012
#11448000000000000
19
13
112
b1 b
b1 16
#11472000000000000
09
03
012
#11496000000000000
19
13
112
b0 b
b0 16
1a
115
#11520000000000000
09
03
012
#11544000000000000
19
13
112
b11 b
sDATA/2 e
0f
b11 16
0a
015
#11568000000000000
09
03
012
#11592000000000000
19
13
112
00
06
b10 b
b10 16
#11616000000000000
09
03
012
#11640000000000000
19
13
112
b1 b
b1 16
#11664000000000000
09
03
012
#11688000000000000
19
13
112
b0 b
b0 16
1a
115
#11712000000000000
09
03
012
#11736000000000000
19
13
112
b11 b
b101010 d
1f
b1 10
b11 16
0a
015
#11760000000000000
09
03
012
#11784000000000000
19
13
112
b10 b
b10 16
#11808000000000000
09
03
012
#11832000000000000
19
13
112
b1 b
b1 16
#11856000000000000
09
03
012
#11880000000000000
19
13
112
b0 b
b0 16
1a
115
#11904000000000000
09
03
012
#11928000000000000
19
13
112
b11 b
b10101 d
0f
b10 10
b11 16
0a
015
#11952000000000000
09
03
012
#11976000000000000
19
13
112
b10 b
b10 16
#12000000000000000
09
03
012
#12024000000000000
19
13
112
b1 b
b1 16
#12048000000000000
09
03
012
#12072000000000000
19
13
112
b0 b
b0 16
1a
115
#12096000000000000
09
03
012
#12120000000000000
19
13
112
b11 b
b1010 d
1f
b11 10
b11 16
0a
015
#12144000000000000
09
03
012
#12168000000000000
19
13
112
b10 b
b10 16
#12192000000000000
09
03
012
#12216000000000000
19
13
112
b1 b
b1 16
#12240000000000000
09
03
012
#12264000000000000
19
13
112
b0 b
b0 16
1a
115
#12288000000000000
09
03
012
#12312000000000000
19
13
112
b11 b
b101 d
0f
b100 10
b11 16
0a
015
#12336000000000000
09
03
012
#12360000000000000
19
13
112
b10 b
b10 16
#12384000000000000
09
03
012
#12408000000000000
19
13
112
b1 b
b1 16
#12432000000000000
09
03
012
#12456000000000000
19
13
112
b0 b
b0 16
1a
115
#12480000000000000
09
03
012
#12504000000000000
19
13
112
b11 b
b10 d
1f
b101 10
b11 16
0a
015
#12528000000000000
09
03
012
#12552000000000000
19
13
112
b10 b
b10 16
#12576000000000000
09
03
012
#12600000000000000
19
13
112
b1 b
b1 16
#12624000000000000
09
03
012
#12648000000000000
19
13
112
b0 b
b0 16
1a
115
#12672000000000000
09
03
012
#12696000000000000
19
13
112
b11 b
b1 d
0f
b110 10
b11 16
0a
015
#12720000000000000
09
03
012
#12744000000000000
19
13
112
b10 b
b10 16
#12768000000000000
09
03
012
#12792000000000000
19
13
112
b1 b
b1 16
#12816000000000000
09
03
012
#12840000000000000
19
13
112
b0 b
b0 16
1a
115
#12864000000000000
09
03
012
#12888000000000000
19
13
112
b11 b
b0 d
1f
b111 10
b11 16
0a
015
#12912000000000000
09
03
012
#12936000000000000
19
13
112
b10 b
b10 16
#12960000000000000
09
03
012
#12984000000000000
19
13
112
b1 b
b1 16
#13008000000000000
09
03
012
#13032000000000000
19
13
112
b0 b
b0 16
1a
115
#13056000000000000
09
03
012
#13080000000000000
19
13
112
b11 b
sSTOP/3 e
0f
b0 10
b11 16
0a
015
#13104000000000000
09
03
012
#13128000000000000
19
13
112
b10 b
b10 16
#13152000000000000
09
03
012
#13176000000000000
19
13
112
b1 b
b1 16
#13200000000000000
09
03
012
#13224000000000000
19
13
112
b0 b
b0 16
1a
115
#13248000000000000
09
03
012
#13272000000000000
19
13
112
b11 b
sIDLE/0 e
1f
b11 16
0a
015
#13296000000000000
09
03
012
#13320000000000000
19
13
112
b10 b
b10 16
#13344000000000000
09
03
012
#13368000000000000
19
13
112
b1 b
b1 16
#13392000000000000
09
03
012
#13416000000000000
19
13
112
b0 b
b0 16
1a
115
#13440000000000000
09
03
012
#13464000000000000
19
13
112
b11 b
b11 16
0a
015
#13488000000000000
09
03
012
#13512000000000000
19
13
112
b10000001 7
b10000001 1
10
16
b10 b
b10 16
#13536000000000000
09
03
012
#13560000000000000
19
13
112
b11 b
b10000001 d
sSTART/1 e
b1 16
#13584000000000000
09
03
012
#13608000000000000
19
13
112
b10 b
b0 16
115
#13632000000000000
09
03
012
#13656000000000000
19
13
112
b1 b
b11 16
015
#13680000000000000
09
03
012
#13704000000000000
19
13
112
b0 b
b10 16
1a
#13728000000000000
09
03
012
#13752000000000000
19
13
112
b11 b
sDATA/2 e
0f
b1 16
0a
#13776000000000000
09
03
012
#13800000000000000
19
13
112
00
06
b10 b
b0 16
115
#13824000000000000
09
03
012
#13848000000000000
19
13
112
b1 b
b11 16
015
#13872000000000000
09
03
012
#13896000000000000
19
13
112
b0 b
b10 16
1a
#13920000000000000
09
03
012
#13944000000000000
19
13
112
b11 b
b1000000 d
1f
b1 10
b1 16
0a
#13968000000000000
09
03
012
#13992000000000000
19
13
112
b10 b
b0 16
115
#14016000000000000
09
03
012
#14040000000000000
19
13
112
b1 b
b11 16
015
#14064000000000000
09
03
012
